# Blender v2.79 (sub 0) OBJ File: 'untitled.blend'
# www.blender.org
g Hammer
v 1.800000 -0.000536 1.800000
v 1.800000 8.000000 1.800000
v -1.800000 -0.000536 1.800000
v -1.800000 8.000000 1.800000
v 1.800000 -0.000536 -1.800000
v 1.800000 8.000000 -1.800000
v -1.800000 -0.000536 -1.800000
v -1.800000 8.000000 -1.800000
v 1.000000 4.800000 2.000000
v -1.000000 4.800000 2.000000
v -2.000000 7.800000 -2.000000
v 2.000000 7.800000 -2.000000
v -1.000000 3.199464 2.000000
v 1.000000 3.199464 2.000000
v -2.000000 0.199464 -2.000000
v 2.000000 0.199464 -2.000000
v -2.000000 0.199464 2.000000
v 2.000000 0.199464 2.000000
v 2.000000 7.800000 2.000000
v -2.000000 7.800000 2.000000
v -1.000000 3.199464 12.000000
v 0.999999 3.199464 12.000000
v 0.999999 4.800000 12.000000
v -1.000000 4.800000 12.000000
vn 0.0000 1.0000 0.0000
vn -1.0000 0.0000 -0.0000
vn 0.0000 0.0000 -1.0000
vn 1.0000 0.0000 0.0000
vn 0.0000 -1.0000 -0.0000
vn -0.0000 0.7071 0.7071
vn -0.7071 0.7071 -0.0000
vn 0.0000 0.7071 -0.7071
vn 0.7071 0.7071 0.0000
vn -0.0000 -0.7071 0.7071
vn -0.7071 -0.7071 -0.0000
vn 0.0000 -0.7071 -0.7071
vn 0.7071 -0.7071 0.0000
vn 0.0000 -0.0000 1.0000
s off
f 9//1 10//1 24//1 23//1
f 17//2 20//2 11//2 15//2
f 15//3 11//3 12//3 16//3
f 16//4 12//4 19//4 18//4
f 3//5 7//5 5//5 1//5
f 8//1 4//1 2//1 6//1
f 2//6 4//6 20//6 19//6
f 4//7 8//7 11//7 20//7
f 8//8 6//8 12//8 11//8
f 6//9 2//9 19//9 12//9
f 3//10 1//10 18//10 17//10
f 7//11 3//11 17//11 15//11
f 5//12 7//12 15//12 16//12
f 1//13 5//13 16//13 18//13
f 14//14 13//14 17//14 18//14
f 9//14 14//14 18//14 19//14
f 10//14 9//14 19//14 20//14
f 13//14 10//14 20//14 17//14
f 22//14 23//14 24//14 21//14
f 13//5 14//5 22//5 21//5
f 10//2 13//2 21//2 24//2
f 14//4 9//4 23//4 22//4
