# Blender v2.79 (sub 0) OBJ File: ''
# www.blender.org
g Level
v 20.000000 0.073531 -200.000000
v 15.555555 1.388890 -200.000000
v 11.111112 1.666669 -200.000000
v 6.666666 1.380718 -200.000000
v 2.222222 0.972224 -200.000000
v -2.222223 0.430286 -200.000000
v -6.666667 0.661767 -200.000000
v -11.111112 0.430283 -200.000000
v -15.555555 0.029957 -200.000000
v -20.000000 0.073531 -200.000000
v 20.000000 -3.827243 -195.959595
v 15.555555 -5.398100 -195.959595
v 11.111112 -5.759558 -195.959595
v 6.666666 -6.089408 -195.959595
v 2.222222 -6.226483 -195.959595
v -2.222223 -5.983832 -195.959595
v -6.666667 -5.341160 -195.959595
v -11.111112 -4.668390 -195.959595
v -15.555555 -3.451949 -195.959595
v -20.000000 -3.827243 -195.959595
v 20.000000 -2.639137 -191.919189
v 15.555555 -3.798913 -191.919189
v 11.111112 -4.222125 -191.919189
v 6.666666 -5.012877 -191.919189
v 2.222222 -5.418403 -191.919189
v -2.222223 -5.536138 -191.919189
v -6.666667 -5.419062 -191.919189
v -11.111112 -5.337169 -191.919189
v -15.555555 -3.574114 -191.919189
v -20.000000 -2.639137 -191.919189
v 20.000000 -3.090464 -187.878784
v 15.555555 -2.547039 -187.878784
v 11.111112 -3.007445 -187.878784
v 6.666666 -4.193406 -187.878784
v 2.222222 -5.074935 -187.878784
v -2.222223 -5.687764 -187.878784
v -6.666667 -6.360420 -187.878784
v -11.111112 -5.651039 -187.878784
v -15.555555 -4.315214 -187.878784
v -20.000000 -3.090464 -187.878784
v 20.000000 -3.423451 -183.838379
v 15.555555 -2.064765 -183.838379
v 11.111112 -2.807982 -183.838379
v 6.666666 -4.200915 -183.838379
v 2.222222 -5.650846 -183.838379
v -2.222223 -6.500163 -183.838379
v -6.666667 -7.027220 -183.838379
v -11.111112 -5.814219 -183.838379
v -15.555555 -5.147089 -183.838379
v -20.000000 -3.423451 -183.838379
v 20.000000 -3.029066 -179.797989
v 15.555555 -1.604224 -179.797989
v 11.111112 -2.242524 -179.797989
v 6.666666 -3.663021 -179.797989
v 2.222222 -5.448469 -179.797989
v -2.222223 -6.834388 -179.797989
v -6.666667 -7.186574 -179.797989
v -11.111112 -6.276988 -179.797989
v -15.555555 -5.224221 -179.797989
v -20.000000 -3.029066 -179.797989
v 20.000000 -2.934493 -175.757568
v 15.555555 -0.812455 -175.757568
v 11.111112 -1.666749 -175.757568
v 6.666666 -3.154091 -175.757568
v 2.222222 -4.938110 -175.757568
v -2.222223 -6.720147 -175.757568
v -6.666667 -7.601508 -175.757568
v -11.111112 -7.007660 -175.757568
v -15.555555 -5.907360 -175.757568
v -20.000000 -2.934493 -175.757568
v 20.000000 -3.066944 -171.717163
v 15.555555 0.108165 -171.717163
v 11.111112 -0.756115 -171.717163
v 6.666666 -2.310441 -171.717163
v 2.222222 -4.146173 -171.717163
v -2.222223 -6.085172 -171.717163
v -6.666667 -7.320594 -171.717163
v -11.111112 -6.986506 -171.717163
v -15.555555 -6.274842 -171.717163
v -20.000000 -3.066944 -171.717163
v 20.000000 -2.991684 -167.676773
v 15.555555 0.933162 -167.676773
v 11.111112 0.585759 -167.676773
v 6.666666 -0.767646 -167.676773
v 2.222222 -2.074231 -167.676773
v -2.222223 -4.225236 -167.676773
v -6.666667 -6.452189 -167.676773
v -11.111112 -7.340069 -167.676773
v -15.555555 -6.550640 -167.676773
v -20.000000 -2.991684 -167.676773
v 20.000000 -2.956775 -163.636368
v 15.555555 1.184393 -163.636368
v 11.111112 1.073975 -163.636368
v 6.666666 0.733811 -163.636368
v 2.222222 0.229254 -163.636368
v -2.222223 -2.001635 -163.636368
v -6.666667 -5.045309 -163.636368
v -11.111112 -6.800360 -163.636368
v -15.555555 -6.629285 -163.636368
v -20.000000 -2.956775 -163.636368
v 20.000000 -1.925383 -159.595963
v 15.555555 1.093179 -159.595963
v 11.111112 1.511962 -159.595963
v 6.666666 1.146928 -159.595963
v 2.222222 -0.424284 -159.595963
v -2.222223 -2.857469 -159.595963
v -6.666667 -5.789101 -159.595963
v -11.111112 -7.339712 -159.595963
v -15.555555 -6.128499 -159.595963
v -20.000000 -1.925383 -159.595963
v 20.000000 -2.132354 -155.555557
v 15.555555 0.005448 -155.555557
v 11.111112 0.027233 -155.555557
v 6.666666 0.392157 -155.555557
v 2.222222 -1.404322 -155.555557
v -2.222223 -4.068025 -155.555557
v -6.666667 -6.251818 -155.555557
v -11.111112 -7.767796 -155.555557
v -15.555555 -6.337452 -155.555557
v -20.000000 -2.132354 -155.555557
v 20.000000 -3.695782 -151.515152
v 15.555555 -2.271656 -151.515152
v 11.111112 -1.521258 -151.515152
v 6.666666 -1.150478 -151.515152
v 2.222222 -2.425894 -151.515152
v -2.222223 -3.934692 -151.515152
v -6.666667 -7.175683 -151.515152
v -11.111112 -8.882538 -151.515152
v -15.555555 -7.159342 -151.515152
v -20.000000 -3.695782 -151.515152
v 20.000000 -4.897758 -147.474747
v 15.555555 -3.604236 -147.474747
v 11.111112 -3.087057 -147.474747
v 6.666666 -3.511591 -147.474747
v 2.222222 -3.879844 -147.474747
v -2.222223 -4.982125 -147.474747
v -6.666667 -7.883001 -147.474747
v -11.111112 -8.584567 -147.474747
v -15.555555 -8.292599 -147.474747
v -20.000000 -4.897758 -147.474747
v 20.000000 -5.622402 -143.434341
v 15.555555 -5.302426 -143.434341
v 11.111112 -4.812863 -143.434341
v 6.666666 -5.101755 -143.434341
v 2.222222 -6.293464 -143.434341
v -2.222223 -6.158620 -143.434341
v -6.666667 -7.285357 -143.434341
v -11.111112 -8.313642 -143.434341
v -15.555555 -7.936669 -143.434341
v -20.000000 -5.622402 -143.434341
v 20.000000 -6.727574 -139.393936
v 15.555555 -6.464071 -139.393936
v 11.111112 -6.671208 -139.393936
v 6.666666 -6.187367 -139.393936
v 2.222222 -6.894520 -139.393936
v -2.222223 -7.496703 -139.393936
v -6.666667 -7.199201 -139.393936
v -11.111112 -8.023704 -139.393936
v -15.555555 -8.656339 -139.393936
v -20.000000 -6.727574 -139.393936
v 20.000000 -7.398993 -135.353546
v 15.555555 -7.477144 -135.353546
v 11.111112 -7.986183 -135.353546
v 6.666666 -7.380589 -135.353546
v 2.222222 -7.420090 -135.353546
v -2.222223 -8.030499 -135.353546
v -6.666667 -8.478249 -135.353546
v -11.111112 -8.840283 -135.353546
v -15.555555 -8.974416 -135.353546
v -20.000000 -7.398993 -135.353546
v 20.000000 -8.158549 -131.313141
v 15.555555 -8.516459 -131.313141
v 11.111112 -9.323358 -131.313141
v 6.666666 -9.114762 -131.313141
v 2.222222 -9.230573 -131.313141
v -2.222223 -9.353341 -131.313141
v -6.666667 -9.571454 -131.313141
v -11.111112 -9.782222 -131.313141
v -15.555555 -9.326081 -131.313141
v -20.000000 -8.158549 -131.313141
v 20.000000 -8.493764 -127.272728
v 15.555555 -9.328587 -127.272728
v 11.111112 -9.912612 -127.272728
v 6.666666 -10.273327 -127.272728
v 2.222222 -10.281498 -127.272728
v -2.222223 -10.139637 -127.272728
v -6.666667 -10.033427 -127.272728
v -11.111112 -9.371661 -127.272728
v -15.555555 -9.177317 -127.272728
v -20.000000 -8.493764 -127.272728
v 20.000000 -7.952569 -123.232315
v 15.555555 -10.161424 -123.232315
v 11.111112 -10.597648 -123.232315
v 6.666666 -10.678686 -123.232315
v 2.222222 -10.316403 -123.232315
v -2.222223 -10.166842 -123.232315
v -6.666667 -9.904606 -123.232315
v -11.111112 -9.243557 -123.232315
v -15.555555 -7.996222 -123.232315
v -20.000000 -7.952569 -123.232315
v 20.000000 -7.887457 -119.191917
v 15.555555 -9.882434 -119.191917
v 11.111112 -10.636297 -119.191917
v 6.666666 -10.909425 -119.191917
v 2.222222 -10.666858 -119.191917
v -2.222223 -10.417827 -119.191917
v -6.666667 -9.867058 -119.191917
v -11.111112 -8.956205 -119.191917
v -15.555555 -7.561485 -119.191917
v -20.000000 -7.887457 -119.191917
v 20.000000 -8.175138 -115.151512
v 15.555555 -9.941577 -115.151512
v 11.111112 -10.807590 -115.151512
v 6.666666 -11.202967 -115.151512
v 2.222222 -10.988401 -115.151512
v -2.222223 -10.503075 -115.151512
v -6.666667 -9.868049 -115.151512
v -11.111112 -9.126564 -115.151512
v -15.555555 -7.893647 -115.151512
v -20.000000 -8.175138 -115.151512
v 20.000000 -8.706430 -111.111115
v 15.555555 -9.942513 -111.111115
v 11.111112 -10.729853 -111.111115
v 6.666666 -10.845139 -111.111115
v 2.222222 -10.767979 -111.111115
v -2.222223 -10.597922 -111.111115
v -6.666667 -10.293214 -111.111115
v -11.111112 -9.515254 -111.111115
v -15.555555 -8.600221 -111.111115
v -20.000000 -8.706430 -111.111115
v 20.000000 -8.539815 -107.070709
v 15.555555 -8.858689 -107.070709
v 11.111112 -9.388306 -107.070709
v 6.666666 -9.409707 -107.070709
v 2.222222 -9.852727 -107.070709
v -2.222223 -10.486102 -107.070709
v -6.666667 -10.842746 -107.070709
v -11.111112 -10.114492 -107.070709
v -15.555555 -9.464227 -107.070709
v -20.000000 -8.539815 -107.070709
v 20.000000 -7.606211 -103.030304
v 15.555555 -6.502275 -103.030304
v 11.111112 -7.238561 -103.030304
v 6.666666 -7.157357 -103.030304
v 2.222222 -8.522316 -103.030304
v -2.222223 -9.593487 -103.030304
v -6.666667 -10.334476 -103.030304
v -11.111112 -9.932252 -103.030304
v -15.555555 -9.533741 -103.030304
v -20.000000 -7.606211 -103.030304
v 20.000000 -6.219060 -98.989906
v 15.555555 -3.964515 -98.989906
v 11.111112 -3.988307 -98.989906
v 6.666666 -5.341160 -98.989906
v 2.222222 -8.135665 -98.989906
v -2.222223 -8.975131 -98.989906
v -6.666667 -9.182021 -98.989906
v -11.111112 -9.238966 -98.989906
v -15.555555 -8.376364 -98.989906
v -20.000000 -6.219060 -98.989906
v 20.000000 -3.155328 -94.949493
v 15.555555 -0.836331 -94.949493
v 11.111112 -2.448944 -94.949493
v 6.666666 -4.731383 -94.949493
v 2.222222 -6.703723 -94.949493
v -2.222223 -8.309185 -94.949493
v -6.666667 -8.530075 -94.949493
v -11.111112 -7.841737 -94.949493
v -15.555555 -5.914953 -94.949493
v -20.000000 -3.155328 -94.949493
v 20.000000 -1.183154 -90.909088
v 15.555555 2.091260 -90.909088
v 11.111112 -0.510246 -90.909088
v 6.666666 -2.637402 -90.909088
v 2.222222 -4.482078 -90.909088
v -2.222223 -6.388643 -90.909088
v -6.666667 -7.113043 -90.909088
v -11.111112 -6.122252 -90.909088
v -15.555555 -4.275351 -90.909088
v -20.000000 -1.183154 -90.909088
v 20.000000 0.274065 -86.868690
v 15.555555 3.216173 -86.868690
v 11.111112 1.803327 -86.868690
v 6.666666 0.052896 -86.868690
v 2.222222 -2.593066 -86.868690
v -2.222223 -3.514534 -86.868690
v -6.666667 -4.000964 -86.868690
v -11.111112 -3.037487 -86.868690
v -15.555555 -2.734206 -86.868690
v -20.000000 0.274065 -86.868690
v 20.000000 0.920231 -82.828285
v 15.555555 4.943830 -82.828285
v 11.111112 3.306075 -82.828285
v 6.666666 3.606160 -82.828285
v 2.222222 1.536054 -82.828285
v -2.222223 0.363162 -82.828285
v -6.666667 -0.792566 -82.828285
v -11.111112 -0.921387 -82.828285
v -15.555555 -2.813704 -82.828285
v -20.000000 0.920231 -82.828285
v 20.000000 1.979355 -78.787872
v 15.555555 7.547049 -78.787872
v 11.111112 5.704686 -78.787872
v 6.666666 4.763820 -78.787872
v 2.222222 4.256703 -78.787872
v -2.222223 3.341671 -78.787872
v -6.666667 1.854331 -78.787872
v -11.111112 -0.599867 -78.787872
v -15.555555 -2.713902 -78.787872
v -20.000000 1.979355 -78.787872
v 20.000000 2.665133 -74.747482
v 15.555555 8.027507 -74.747482
v 11.111112 7.411206 -74.747482
v 6.666666 6.488249 -74.747482
v 2.222222 5.831268 -74.747482
v -2.222223 4.735234 -74.747482
v -6.666667 4.100235 -74.747482
v -11.111112 2.137164 -74.747482
v -15.555555 -1.324437 -74.747482
v -20.000000 2.665133 -74.747482
v 20.000000 2.592100 -70.707069
v 15.555555 7.398966 -70.707069
v 11.111112 8.338509 -70.707069
v 6.666666 6.977049 -70.707069
v 2.222222 6.934190 -70.707069
v -2.222223 6.641503 -70.707069
v -6.666667 5.667212 -70.707069
v -11.111112 4.168930 -70.707069
v -15.555555 -0.013199 -70.707069
v -20.000000 2.592100 -70.707069
v 20.000000 3.137256 -66.666664
v 15.555555 9.487121 -66.666664
v 11.111112 9.004187 -66.666664
v 6.666666 6.854585 -66.666664
v 2.222222 7.167766 -66.666664
v -2.222223 7.261261 -66.666664
v -6.666667 5.795208 -66.666664
v -11.111112 3.219859 -66.666664
v -15.555555 -0.683550 -66.666664
v -20.000000 3.137256 -66.666664
v 20.000000 2.950837 -62.626266
v 15.555555 10.954403 -62.626266
v 11.111112 10.968076 -62.626266
v 6.666666 8.810822 -62.626266
v 2.222222 8.264128 -62.626266
v -2.222223 6.466606 -62.626266
v -6.666667 4.335763 -62.626266
v -11.111112 1.714120 -62.626266
v -15.555555 -1.082886 -62.626266
v -20.000000 2.950837 -62.626266
v 20.000000 1.556746 -58.585857
v 15.555555 9.265046 -58.585857
v 11.111112 10.272782 -58.585857
v 6.666666 9.230136 -58.585857
v 2.222222 7.130573 -58.585857
v -2.222223 4.501387 -58.585857
v -6.666667 2.183766 -58.585857
v -11.111112 0.686688 -58.585857
v -15.555555 -1.856802 -58.585857
v -20.000000 1.556746 -58.585857
v 20.000000 0.358737 -54.545448
v 15.555555 7.135824 -54.545448
v 11.111112 5.967278 -54.545448
v 6.666666 5.920979 -54.545448
v 2.222222 3.764858 -54.545448
v -2.222223 2.362598 -54.545448
v -6.666667 0.692219 -54.545448
v -11.111112 -1.134134 -54.545448
v -15.555555 -3.348683 -54.545448
v -20.000000 0.358737 -54.545448
v 20.000000 -1.506487 -50.505054
v 15.555555 4.717798 -50.505054
v 11.111112 1.922248 -50.505054
v 6.666666 1.332030 -50.505054
v 2.222222 -0.601054 -50.505054
v -2.222223 -0.528899 -50.505054
v -6.666667 -1.246948 -50.505054
v -11.111112 -3.390770 -50.505054
v -15.555555 -5.634782 -50.505054
v -20.000000 -1.506487 -50.505054
v 20.000000 -2.729998 -46.464645
v 15.555555 2.629070 -46.464645
v 11.111112 -0.145517 -46.464645
v 6.666666 -2.656220 -46.464645
v 2.222222 -4.132972 -46.464645
v -2.222223 -3.030415 -46.464645
v -6.666667 -3.382437 -46.464645
v -11.111112 -5.366990 -46.464645
v -15.555555 -7.456926 -46.464645
v -20.000000 -2.729998 -46.464645
v 20.000000 -4.959154 -42.424236
v 15.555555 -0.922545 -42.424236
v 11.111112 -3.059436 -42.424236
v 6.666666 -6.162363 -42.424236
v 2.222222 -6.575066 -42.424236
v -2.222223 -5.246174 -42.424236
v -6.666667 -5.821702 -42.424236
v -11.111112 -7.198459 -42.424236
v -15.555555 -8.460755 -42.424236
v -20.000000 -4.959154 -42.424236
v 20.000000 -6.467122 -38.383842
v 15.555555 -4.183966 -38.383842
v 11.111112 -6.718353 -38.383842
v 6.666666 -7.785700 -38.383842
v 2.222222 -7.056210 -38.383842
v -2.222223 -6.346030 -38.383842
v -6.666667 -7.625772 -38.383842
v -11.111112 -8.261348 -38.383842
v -15.555555 -9.130581 -38.383842
v -20.000000 -6.467122 -38.383842
v 20.000000 -7.727524 -34.343433
v 15.555555 -6.683535 -34.343433
v 11.111112 -8.446231 -34.343433
v 6.666666 -9.029846 -34.343433
v 2.222222 -8.790992 -34.343433
v -2.222223 -7.820008 -34.343433
v -6.666667 -8.194532 -34.343433
v -11.111112 -8.421473 -34.343433
v -15.555555 -8.513103 -34.343433
v -20.000000 -7.727524 -34.343433
v 20.000000 -8.553184 -30.303024
v 15.555555 -8.242478 -30.303024
v 11.111112 -9.525158 -30.303024
v 6.666666 -9.568237 -30.303024
v 2.222222 -9.134817 -30.303024
v -2.222223 -8.692073 -30.303024
v -6.666667 -9.093885 -30.303024
v -11.111112 -8.094346 -30.303024
v -15.555555 -8.272434 -30.303024
v -20.000000 -8.553184 -30.303024
v 20.000000 -9.158995 -26.262629
v 15.555555 -9.134128 -26.262629
v 11.111112 -9.926337 -26.262629
v 6.666666 -9.801287 -26.262629
v 2.222222 -9.797185 -26.262629
v -2.222223 -9.801147 -26.262629
v -6.666667 -10.053396 -26.262629
v -11.111112 -8.964071 -26.262629
v -15.555555 -8.909825 -26.262629
v -20.000000 -9.158995 -26.262629
v 20.000000 -9.381813 -22.222221
v 15.555555 -10.118923 -22.222221
v 11.111112 -9.867167 -22.222221
v 6.666666 -9.355487 -22.222221
v 2.222222 -10.222711 -22.222221
v -2.222223 -10.523789 -22.222221
v -6.666667 -10.233303 -22.222221
v -11.111112 -8.981485 -22.222221
v -15.555555 -8.213208 -22.222221
v -20.000000 -9.381813 -22.222221
v 20.000000 -9.064173 -18.181812
v 15.555555 -9.298130 -18.181812
v 11.111112 -9.171620 -18.181812
v 6.666666 -9.597449 -18.181812
v 2.222222 -10.522882 -18.181812
v -2.222223 -10.433753 -18.181812
v -6.666667 -9.745250 -18.181812
v -11.111112 -7.927562 -18.181812
v -15.555555 -6.960042 -18.181812
v -20.000000 -9.064173 -18.181812
v 20.000000 -8.164988 -14.141417
v 15.555555 -8.183693 -14.141417
v 11.111112 -8.630235 -14.141417
v 6.666666 -9.147692 -14.141417
v 2.222222 -10.110891 -14.141417
v -2.222223 -10.206922 -14.141417
v -6.666667 -9.495862 -14.141417
v -11.111112 -7.651875 -14.141417
v -15.555555 -6.890255 -14.141417
v -20.000000 -8.164988 -14.141417
v 20.000000 -7.492824 -10.101008
v 15.555555 -7.388787 -10.101008
v 11.111112 -7.944153 -10.101008
v 6.666666 -8.519513 -10.101008
v 2.222222 -9.662617 -10.101008
v -2.222223 -10.000307 -10.101008
v -6.666667 -9.406075 -10.101008
v -11.111112 -7.756546 -10.101008
v -15.555555 -6.950747 -10.101008
v -20.000000 -7.492824 -10.101008
v 20.000000 -6.707518 -6.060600
v 15.555555 -7.108918 -6.060600
v 11.111112 -7.922033 -6.060600
v 6.666666 -9.339231 -6.060600
v 2.222222 -10.209867 -6.060600
v -2.222223 -9.743518 -6.060600
v -6.666667 -8.860420 -6.060600
v -11.111112 -8.052506 -6.060600
v -15.555555 -7.245085 -6.060600
v -20.000000 -6.707518 -6.060600
v 20.000000 -4.934891 -2.020204
v 15.555555 -6.269589 -2.020204
v 11.111112 -6.994761 -2.020204
v 6.666666 -9.944632 -2.020204
v 2.222222 -10.571322 -2.020204
v -2.222223 -9.830802 -2.020204
v -6.666667 -8.604099 -2.020204
v -11.111112 -8.344231 -2.020204
v -15.555555 -6.363804 -2.020204
v -20.000000 -4.934891 -2.020204
v 20.000000 -3.329377 2.020192
v 15.555555 -4.609364 2.020192
v 11.111112 -6.783307 2.020192
v 6.666666 -9.111383 2.020192
v 2.222222 -9.334945 2.020192
v -2.222223 -9.380658 2.020192
v -6.666667 -8.159623 2.020192
v -11.111112 -7.359769 2.020192
v -15.555555 -4.825849 2.020192
v -20.000000 -3.329377 2.020192
v 20.000000 -3.059269 6.060600
v 15.555555 -3.851425 6.060600
v 11.111112 -5.339181 6.060600
v 6.666666 -7.540608 6.060600
v 2.222222 -8.260139 6.060600
v -2.222223 -8.354548 6.060600
v -6.666667 -7.666621 6.060600
v -11.111112 -6.180106 6.060600
v -15.555555 -5.595252 6.060600
v -20.000000 -3.059269 6.060600
v 20.000000 -3.120173 10.101008
v 15.555555 -1.388998 10.101008
v 11.111112 -3.408484 10.101008
v 6.666666 -6.355715 10.101008
v 2.222222 -7.120800 10.101008
v -2.222223 -6.167805 10.101008
v -6.666667 -4.257276 10.101008
v -11.111112 -3.447326 10.101008
v -15.555555 -4.885595 10.101008
v -20.000000 -3.120173 10.101008
v 20.000000 -4.572197 14.141417
v 15.555555 -2.226461 14.141417
v 11.111112 -3.052725 14.141417
v 6.666666 -4.540339 14.141417
v 2.222222 -4.973124 14.141417
v -2.222223 -3.773050 14.141417
v -6.666667 -1.893278 14.141417
v -11.111112 -2.365733 14.141417
v -15.555555 -4.812672 14.141417
v -20.000000 -4.572197 14.141417
v 20.000000 -5.336457 18.181824
v 15.555555 -4.434299 18.181824
v 11.111112 -5.151520 18.181824
v 6.666666 -5.203512 18.181824
v 2.222222 -4.044368 18.181824
v -2.222223 -2.591605 18.181824
v -6.666667 -2.923356 18.181824
v -11.111112 -4.239703 18.181824
v -15.555555 -5.685785 18.181824
v -20.000000 -5.336457 18.181824
v 20.000000 -6.560460 22.222233
v 15.555555 -7.020402 22.222233
v 11.111112 -6.369528 22.222233
v 6.666666 -7.480034 22.222233
v 2.222222 -6.120497 22.222233
v -2.222223 -4.766708 22.222233
v -6.666667 -4.587878 22.222233
v -11.111112 -5.918067 22.222233
v -15.555555 -7.515135 22.222233
v -20.000000 -6.560460 22.222233
v 20.000000 -6.287387 26.262617
v 15.555555 -8.500034 26.262617
v 11.111112 -7.290912 26.262617
v 6.666666 -7.552489 26.262617
v 2.222222 -6.946619 26.262617
v -2.222223 -6.705947 26.262617
v -6.666667 -6.696540 26.262617
v -11.111112 -6.868470 26.262617
v -15.555555 -6.071809 26.262617
v -20.000000 -6.287387 26.262617
v 20.000000 -6.968956 30.303024
v 15.555555 -9.175997 30.303024
v 11.111112 -9.522432 30.303024
v 6.666666 -8.091455 30.303024
v 2.222222 -7.099924 30.303024
v -2.222223 -7.748980 30.303024
v -6.666667 -6.404490 30.303024
v -11.111112 -5.730347 30.303024
v -15.555555 -6.171685 30.303024
v -20.000000 -6.968956 30.303024
v 20.000000 -7.665381 34.343433
v 15.555555 -10.371253 34.343433
v 11.111112 -10.010486 34.343433
v 6.666666 -8.562095 34.343433
v 2.222222 -6.919606 34.343433
v -2.222223 -5.312058 34.343433
v -6.666667 -3.722195 34.343433
v -11.111112 -4.553794 34.343433
v -15.555555 -4.460734 34.343433
v -20.000000 -7.665381 34.343433
v 20.000000 -7.130622 38.383842
v 15.555555 -11.268600 38.383842
v 11.111112 -10.825225 38.383842
v 6.666666 -9.185406 38.383842
v 2.222222 -8.136546 38.383842
v -2.222223 -4.745882 38.383842
v -6.666667 -2.331649 38.383842
v -11.111112 -1.175006 38.383842
v -15.555555 -1.601798 38.383842
v -20.000000 -7.130622 38.383842
v 20.000000 -7.184348 42.424248
v 15.555555 -11.402181 42.424248
v 11.111112 -10.702041 42.424248
v 6.666666 -8.019902 42.424248
v 2.222222 -6.902518 42.424248
v -2.222223 -5.237094 42.424248
v -6.666667 -1.289360 42.424248
v -11.111112 -1.526550 42.424248
v -15.555555 -2.300052 42.424248
v -20.000000 -7.184348 42.424248
v 20.000000 -6.216574 46.464657
v 15.555555 -11.487704 46.464657
v 11.111112 -10.625842 46.464657
v 6.666666 -8.052094 46.464657
v 2.222222 -6.001493 46.464657
v -2.222223 -4.636864 46.464657
v -6.666667 -1.540983 46.464657
v -11.111112 -2.407349 46.464657
v -15.555555 -1.852919 46.464657
v -20.000000 -6.216574 46.464657
v 20.000000 -5.919736 50.505043
v 15.555555 -11.278176 50.505043
v 11.111112 -10.347461 50.505043
v 6.666666 -8.611609 50.505043
v 2.222222 -5.871549 50.505043
v -2.222223 -3.890872 50.505043
v -6.666667 -2.154137 50.505043
v -11.111112 -1.827730 50.505043
v -15.555555 -1.979680 50.505043
v -20.000000 -5.919736 50.505043
v 20.000000 -6.610966 54.545448
v 15.555555 -11.181924 54.545448
v 11.111112 -10.239903 54.545448
v 6.666666 -8.859926 54.545448
v 2.222222 -6.743913 54.545448
v -2.222223 -4.847744 54.545448
v -6.666667 -3.842099 54.545448
v -11.111112 -2.187068 54.545448
v -15.555555 -3.204103 54.545448
v -20.000000 -6.610966 54.545448
v 20.000000 -7.750049 58.585857
v 15.555555 -10.872265 58.585857
v 11.111112 -10.062173 58.585857
v 6.666666 -9.055098 58.585857
v 2.222222 -6.781519 58.585857
v -2.222223 -5.102389 58.585857
v -6.666667 -5.256814 58.585857
v -11.111112 -3.738584 58.585857
v -15.555555 -4.937526 58.585857
v -20.000000 -7.750049 58.585857
v 20.000000 -7.076645 62.626266
v 15.555555 -9.524573 62.626266
v 11.111112 -8.631821 62.626266
v 6.666666 -7.579055 62.626266
v 2.222222 -5.402553 62.626266
v -2.222223 -4.571588 62.626266
v -6.666667 -4.848483 62.626266
v -11.111112 -4.778869 62.626266
v -15.555555 -4.306348 62.626266
v -20.000000 -7.076645 62.626266
v 20.000000 -6.348041 66.666672
v 15.555555 -7.306634 66.666672
v 11.111112 -5.915020 66.666672
v 6.666666 -4.967308 66.666672
v 2.222222 -4.438089 66.666672
v -2.222223 -3.179009 66.666672
v -6.666667 -3.613828 66.666672
v -11.111112 -5.265977 66.666672
v -15.555555 -4.688643 66.666672
v -20.000000 -6.348041 66.666672
v 20.000000 -5.603838 70.707062
v 15.555555 -5.080742 70.707062
v 11.111112 -3.619038 70.707062
v 6.666666 -3.289600 70.707062
v 2.222222 -3.036828 70.707062
v -2.222223 -2.669535 70.707062
v -6.666667 -2.476979 70.707062
v -11.111112 -4.549997 70.707062
v -15.555555 -4.828213 70.707062
v -20.000000 -5.603838 70.707062
v 20.000000 -6.151218 74.747467
v 15.555555 -4.963031 74.747467
v 11.111112 -2.877002 74.747467
v 6.666666 -1.996354 74.747467
v 2.222222 -0.223179 74.747467
v -2.222223 -1.198564 74.747467
v -6.666667 -1.989339 74.747467
v -11.111112 -3.393965 74.747467
v -15.555555 -5.080848 74.747467
v -20.000000 -6.151218 74.747467
v 20.000000 -7.094476 78.787872
v 15.555555 -4.488598 78.787872
v 11.111112 -2.374316 78.787872
v 6.666666 -1.034859 78.787872
v 2.222222 -0.092921 78.787872
v -2.222223 -0.565210 78.787872
v -6.666667 -2.359874 78.787872
v -11.111112 -5.179488 78.787872
v -15.555555 -6.816695 78.787872
v -20.000000 -7.094476 78.787872
v 20.000000 -7.455191 82.828285
v 15.555555 -4.351853 82.828285
v 11.111112 -2.743913 82.828285
v 6.666666 -2.172623 82.828285
v 2.222222 -1.997259 82.828285
v -2.222223 -1.028917 82.828285
v -6.666667 -4.770085 82.828285
v -11.111112 -8.157749 82.828285
v -15.555555 -7.972788 82.828285
v -20.000000 -7.455191 82.828285
v 20.000000 -6.829821 86.868690
v 15.555555 -4.483287 86.868690
v 11.111112 -4.197586 86.868690
v 6.666666 -3.995675 86.868690
v 2.222222 -2.926375 86.868690
v -2.222223 -2.733846 86.868690
v -6.666667 -6.413236 86.868690
v -11.111112 -8.212934 86.868690
v -15.555555 -7.993666 86.868690
v -20.000000 -6.829821 86.868690
v 20.000000 -5.995992 90.909103
v 15.555555 -3.825511 90.909103
v 11.111112 -5.212914 90.909103
v 6.666666 -5.324570 90.909103
v 2.222222 -4.677660 90.909103
v -2.222223 -4.785603 90.909103
v -6.666667 -6.584228 90.909103
v -11.111112 -8.104578 90.909103
v -15.555555 -8.095666 90.909103
v -20.000000 -5.995992 90.909103
v 20.000000 -6.075957 94.949486
v 15.555555 -3.132607 94.949486
v 11.111112 -4.353752 94.949486
v 6.666666 -4.960063 94.949486
v 2.222222 -5.459388 94.949486
v -2.222223 -6.387846 94.949486
v -6.666667 -8.272765 94.949486
v -11.111112 -9.462136 94.949486
v -15.555555 -9.362446 94.949486
v -20.000000 -6.075957 94.949486
v 20.000000 -6.274017 98.989891
v 15.555555 -2.413158 98.989891
v 11.111112 -3.816268 98.989891
v 6.666666 -6.108802 98.989891
v 2.222222 -6.228353 98.989891
v -2.222223 -6.196500 98.989891
v -6.666667 -8.057624 98.989891
v -11.111112 -8.994387 98.989891
v -15.555555 -9.114901 98.989891
v -20.000000 -6.274017 98.989891
v 20.000000 -5.788773 103.030304
v 15.555555 -2.505448 103.030304
v 11.111112 -5.559355 103.030304
v 6.666666 -7.308877 103.030304
v 2.222222 -6.714699 103.030304
v -2.222223 -4.714053 103.030304
v -6.666667 -6.591903 103.030304
v -11.111112 -8.114151 103.030304
v -15.555555 -8.734984 103.030304
v -20.000000 -5.788773 103.030304
v 20.000000 -6.451033 107.070709
v 15.555555 -5.336676 107.070709
v 11.111112 -6.495211 107.070709
v 6.666666 -7.530373 107.070709
v 2.222222 -7.373768 107.070709
v -2.222223 -6.220323 107.070709
v -6.666667 -7.574605 107.070709
v -11.111112 -8.225698 107.070709
v -15.555555 -9.022061 107.070709
v -20.000000 -6.451033 107.070709
v 20.000000 -8.063730 111.111115
v 15.555555 -6.787706 111.111115
v 11.111112 -7.193782 111.111115
v 6.666666 -7.164127 111.111115
v 2.222222 -7.902751 111.111115
v -2.222223 -8.729733 111.111115
v -6.666667 -8.556650 111.111115
v -11.111112 -8.740624 111.111115
v -15.555555 -9.529175 111.111115
v -20.000000 -8.063730 111.111115
v 20.000000 -8.996588 115.151527
v 15.555555 -6.866876 115.151527
v 11.111112 -6.452931 115.151527
v 6.666666 -6.786992 115.151527
v 2.222222 -8.795723 115.151527
v -2.222223 -10.047539 115.151527
v -6.666667 -9.665533 115.151527
v -11.111112 -9.661571 115.151527
v -15.555555 -10.078732 115.151527
v -20.000000 -8.996588 115.151527
v 20.000000 -9.523918 119.191910
v 15.555555 -8.256305 119.191910
v 11.111112 -8.244110 119.191910
v 6.666666 -8.261774 119.191910
v 2.222222 -9.158274 119.191910
v -2.222223 -10.130723 119.191910
v -6.666667 -9.844445 119.191910
v -11.111112 -9.898469 119.191910
v -15.555555 -10.678080 119.191910
v -20.000000 -9.523918 119.191910
v 20.000000 -9.515502 123.232315
v 15.555555 -9.560013 123.232315
v 11.111112 -10.400581 123.232315
v 6.666666 -10.176279 123.232315
v 2.222222 -10.017858 123.232315
v -2.222223 -9.954423 123.232315
v -6.666667 -9.967324 123.232315
v -11.111112 -10.293711 123.232315
v -15.555555 -10.749768 123.232315
v -20.000000 -9.515502 123.232315
v 20.000000 -9.803926 127.272728
v 15.555555 -10.947471 127.272728
v 11.111112 -11.265604 127.272728
v 6.666666 -10.935836 127.272728
v 2.222222 -10.358493 127.272728
v -2.222223 -10.102748 127.272728
v -6.666667 -9.994803 127.272728
v -11.111112 -10.131958 127.272728
v -15.555555 -9.986384 127.272728
v -20.000000 -9.803926 127.272728
v 20.000000 -9.777932 131.313141
v 15.555555 -11.773624 131.313141
v 11.111112 -11.633855 131.313141
v 6.666666 -11.502283 131.313141
v 2.222222 -11.089331 131.313141
v -2.222223 -10.428308 131.313141
v -6.666667 -9.494458 131.313141
v -11.111112 -8.790219 131.313141
v -15.555555 -7.806086 131.313141
v -20.000000 -9.777932 131.313141
v 20.000000 -10.098044 135.353546
v 15.555555 -11.921674 135.353546
v 11.111112 -11.605769 135.353546
v 6.666666 -11.567643 135.353546
v 2.222222 -11.302739 135.353546
v -2.222223 -10.901670 135.353546
v -6.666667 -9.302343 135.353546
v -11.111112 -8.195301 135.353546
v -15.555555 -7.266374 135.353546
v -20.000000 -10.098044 135.353546
v 20.000000 -10.371367 139.393951
v 15.555555 -11.773377 139.393951
v 11.111112 -11.447406 139.393951
v 6.666666 -11.405235 139.393951
v 2.222222 -11.352336 139.393951
v -2.222223 -11.184397 139.393951
v -6.666667 -10.182467 139.393951
v -11.111112 -8.759990 139.393951
v -15.555555 -7.976259 139.393951
v -20.000000 -10.371367 139.393951
v 20.000000 -11.061352 143.434326
v 15.555555 -11.742926 143.434326
v 11.111112 -11.618834 143.434326
v 6.666666 -11.490482 143.434326
v 2.222222 -11.323535 143.434326
v -2.222223 -11.208164 143.434326
v -6.666667 -10.284135 143.434326
v -11.111112 -8.962780 143.434326
v -15.555555 -9.308751 143.434326
v -20.000000 -11.061352 143.434326
v 20.000000 -11.395826 147.474747
v 15.555555 -11.692421 147.474747
v 11.111112 -11.478518 147.474747
v 6.666666 -11.483881 147.474747
v 2.222222 -11.519613 147.474747
v -2.222223 -11.581011 147.474747
v -6.666667 -10.624798 147.474747
v -11.111112 -9.612795 147.474747
v -15.555555 -9.818198 147.474747
v -20.000000 -11.395826 147.474747
v 20.000000 -11.483219 151.515152
v 15.555555 -11.352834 151.515152
v 11.111112 -10.917019 151.515152
v 6.666666 -10.880380 151.515152
v 2.222222 -11.323535 151.515152
v -2.222223 -11.469110 151.515152
v -6.666667 -10.953905 151.515152
v -11.111112 -10.759311 151.515152
v -15.555555 -10.755433 151.515152
v -20.000000 -11.483219 151.515152
v 20.000000 -11.399788 155.555557
v 15.555555 -11.071780 155.555557
v 11.111112 -10.777359 155.555557
v 6.666666 -10.861479 155.555557
v 2.222222 -11.307196 155.555557
v -2.222223 -11.176173 155.555557
v -6.666667 -11.066636 155.555557
v -11.111112 -10.844233 155.555557
v -15.555555 -10.730760 155.555557
v -20.000000 -11.399788 155.555557
v 20.000000 -11.241089 159.595963
v 15.555555 -11.092298 159.595963
v 11.111112 -10.386576 159.595963
v 6.666666 -10.639648 159.595963
v 2.222222 -10.915117 159.595963
v -2.222223 -10.863041 159.595963
v -6.666667 -10.166778 159.595963
v -11.111112 -9.357572 159.595963
v -15.555555 -10.291644 159.595963
v -20.000000 -11.241089 159.595963
v 20.000000 -10.222816 163.636368
v 15.555555 -10.055456 163.636368
v 11.111112 -9.984653 163.636368
v 6.666666 -9.673945 163.636368
v 2.222222 -9.251331 163.636368
v -2.222223 -8.932949 163.636368
v -6.666667 -8.456623 163.636368
v -11.111112 -8.472721 163.636368
v -15.555555 -9.429096 163.636368
v -20.000000 -10.222816 163.636368
v 20.000000 -8.951036 167.676758
v 15.555555 -9.258469 167.676758
v 11.111112 -9.115179 167.676758
v 6.666666 -8.553103 167.676758
v 2.222222 -7.123614 167.676758
v -2.222223 -6.604260 167.676758
v -6.666667 -7.403040 167.676758
v -11.111112 -7.844270 167.676758
v -15.555555 -8.406622 167.676758
v -20.000000 -8.951036 167.676758
v 20.000000 -7.632210 171.717163
v 15.555555 -7.714818 171.717163
v 11.111112 -7.801525 171.717163
v 6.666666 -6.913835 171.717163
v 2.222222 -4.629140 171.717163
v -2.222223 -3.661432 171.717163
v -6.666667 -5.232065 171.717163
v -11.111112 -6.461681 171.717163
v -15.555555 -7.294822 171.717163
v -20.000000 -7.632210 171.717163
v 20.000000 -6.149737 175.757568
v 15.555555 -6.018938 175.757568
v 11.111112 -5.518427 175.757568
v 6.666666 -4.891571 175.757568
v 2.222222 -2.650694 175.757568
v -2.222223 -1.280538 175.757568
v -6.666667 -3.332101 175.757568
v -11.111112 -5.478811 175.757568
v -15.555555 -6.409194 175.757568
v -20.000000 -6.149737 175.757568
v 20.000000 -4.638052 179.797989
v 15.555555 -3.497179 179.797989
v 11.111112 -2.679442 179.797989
v 6.666666 -0.969175 179.797989
v 2.222222 0.063074 179.797989
v -2.222223 0.747532 179.797989
v -6.666667 -1.526789 179.797989
v -11.111112 -4.632191 179.797989
v -15.555555 -5.947769 179.797989
v -20.000000 -4.638052 179.797989
v 20.000000 -2.742131 183.838394
v 15.555555 0.631255 183.838394
v 11.111112 1.136083 183.838394
v 6.666666 2.569814 183.838394
v 2.222222 2.442147 183.838394
v -2.222223 1.818375 183.838394
v -6.666667 -0.674722 183.838394
v -11.111112 -3.805514 183.838394
v -15.555555 -5.531350 183.838394
v -20.000000 -2.742131 183.838394
v 20.000000 -0.371355 187.878799
v 15.555555 4.903951 187.878799
v 11.111112 5.141541 187.878799
v 6.666666 5.684800 187.878799
v 2.222222 5.270195 187.878799
v -2.222223 3.405218 187.878799
v -6.666667 0.383246 187.878799
v -11.111112 -2.806903 187.878799
v -15.555555 -4.510378 187.878799
v -20.000000 -0.371355 187.878799
v 20.000000 1.970191 191.919189
v 15.555555 7.435498 191.919189
v 11.111112 7.754072 191.919189
v 6.666666 8.198329 191.919189
v 2.222222 6.714590 191.919189
v -2.222223 4.646658 191.919189
v -6.666667 2.061630 191.919189
v -11.111112 0.108463 191.919189
v -15.555555 -1.558781 191.919189
v -20.000000 1.970191 191.919189
v 20.000000 4.242923 195.959595
v 15.555555 8.633701 195.959595
v 11.111112 9.487888 195.959595
v 6.666666 9.345009 195.959595
v 2.222222 8.219922 195.959595
v -2.222223 6.197873 195.959595
v -6.666667 4.938271 195.959595
v -11.111112 3.903608 195.959595
v -15.555555 2.663095 195.959595
v -20.000000 4.242923 195.959595
v 20.000000 0.073531 200.000000
v 15.555555 1.388890 200.000000
v 11.111112 1.666669 200.000000
v 6.666666 1.380718 200.000000
v 2.222222 0.972224 200.000000
v -2.222223 0.430286 200.000000
v -6.666667 0.661767 200.000000
v -11.111112 0.430283 200.000000
v -15.555555 0.029957 200.000000
v -20.000000 0.073531 200.000000
vn -0.0173 0.6030 0.7975
vn -0.0103 0.5442 0.8388
vn -0.1217 0.9445 0.3052
vn -0.1769 0.9281 0.3276
vn -0.0188 0.4855 0.8740
vn -0.0789 0.9318 0.3543
vn -0.0314 0.4793 0.8771
vn -0.0768 0.9189 0.3868
vn -0.0237 0.4956 0.8682
vn -0.0284 0.9113 0.4108
vn 0.0175 0.5276 0.8493
vn 0.0389 0.8990 0.4362
vn 0.0414 0.5667 0.8229
vn 0.0714 0.8766 0.4758
vn 0.0455 0.6359 0.7704
vn 0.1362 0.8750 0.4645
vn 0.0184 0.7119 0.7020
vn 0.1109 0.9147 0.3886
vn -0.0275 0.7380 0.6742
vn 0.0197 0.9552 0.2951
vn -0.1353 0.9532 -0.2704
vn -0.1745 0.9627 -0.2067
vn -0.1276 0.9456 -0.2994
vn -0.1330 0.9643 -0.2290
vn -0.0675 0.9883 -0.1370
vn -0.0112 0.9997 -0.0224
vn 0.0491 0.9953 0.0836
vn 0.2047 0.9719 0.1159
vn 0.2369 0.9698 0.0573
vn 0.1510 0.9885 0.0074
vn -0.0214 0.9921 -0.1234
vn 0.0720 0.9957 -0.0585
vn -0.1805 0.9705 -0.1597
vn -0.2233 0.9710 -0.0848
vn -0.1611 0.9868 0.0176
vn -0.1093 0.9874 0.1144
vn 0.0266 0.9894 0.1426
vn 0.2109 0.9696 0.1241
vn 0.2746 0.9527 0.1299
vn 0.2724 0.9521 0.1389
vn 0.0567 0.9948 -0.0839
vn 0.2537 0.9655 -0.0593
vn -0.2173 0.9719 -0.0905
vn -0.2942 0.9548 -0.0418
vn -0.2504 0.9672 0.0426
vn -0.1592 0.9815 0.1057
vn 0.0535 0.9930 0.1047
vn 0.2123 0.9731 0.0898
vn 0.2820 0.9568 0.0709
vn 0.3593 0.9319 0.0499
vn 0.0915 0.9877 -0.1268
vn 0.3328 0.9376 -0.1010
vn -0.2315 0.9632 -0.1364
vn -0.3300 0.9370 -0.1147
vn -0.3231 0.9441 -0.0648
vn -0.2043 0.9789 0.0104
vn 0.0408 0.9960 0.0789
vn 0.2054 0.9722 0.1120
vn 0.3380 0.9389 0.0652
vn 0.4545 0.8906 0.0143
vn 0.1423 0.9785 -0.1496
vn 0.4409 0.8928 -0.0927
vn -0.2447 0.9530 -0.1783
vn -0.3421 0.9264 -0.1572
vn -0.3650 0.9214 -0.1337
vn -0.2719 0.9593 -0.0766
vn -0.0249 0.9996 0.0072
vn 0.1755 0.9814 0.0777
vn 0.3817 0.9205 0.0829
vn 0.5363 0.8421 0.0568
vn 0.2230 0.9590 -0.1747
vn 0.5674 0.8190 -0.0853
vn -0.2336 0.9392 -0.2517
vn -0.3233 0.9048 -0.2770
vn -0.3650 0.8855 -0.2875
vn -0.3383 0.9092 -0.2427
vn -0.1348 0.9825 -0.1287
vn 0.1028 0.9947 0.0047
vn 0.3950 0.9174 0.0482
vn 0.5880 0.8080 0.0353
vn 0.2984 0.9462 -0.1251
vn 0.6472 0.7602 -0.0567
vn -0.1640 0.9600 -0.2268
vn -0.2421 0.9070 -0.3444
vn -0.3213 0.8498 -0.4179
vn -0.4050 0.8317 -0.3797
vn -0.2939 0.9250 -0.2409
vn -0.0166 0.9975 -0.0683
vn 0.3903 0.9206 0.0114
vn 0.6185 0.7857 0.0119
vn 0.3386 0.9385 -0.0670
vn 0.6502 0.7576 -0.0564
vn -0.0696 0.9904 -0.1188
vn -0.1702 0.9681 -0.1837
vn -0.3241 0.9302 -0.1720
vn -0.4871 0.8638 -0.1288
vn -0.4347 0.8974 -0.0758
vn -0.0967 0.9947 -0.0337
vn 0.4000 0.9152 -0.0480
vn 0.6463 0.7597 -0.0719
vn 0.3125 0.9465 0.0802
vn 0.5683 0.8225 0.0199
vn 0.0006 0.9943 0.1064
vn -0.1639 0.9815 0.0986
vn -0.3827 0.9106 0.1562
vn -0.4980 0.8474 0.1840
vn -0.4288 0.8911 0.1486
vn -0.0595 0.9945 0.0864
vn 0.4690 0.8831 -0.0078
vn 0.6751 0.7362 -0.0476
vn 0.2484 0.9144 0.3197
vn 0.4194 0.8632 0.2811
vn 0.0511 0.9392 0.3395
vn -0.1480 0.9483 0.2808
vn -0.3944 0.8951 0.2080
vn -0.4808 0.8645 0.1459
vn -0.4207 0.8952 0.1471
vn -0.0119 0.9855 0.1692
vn 0.4994 0.8545 0.1427
vn 0.6674 0.7350 0.1194
vn 0.2127 0.9056 0.3669
vn 0.3091 0.8871 0.3427
vn 0.0699 0.9178 0.3908
vn -0.1047 0.9200 0.3776
vn -0.2960 0.9145 0.2759
vn -0.4423 0.8818 0.1638
vn -0.4237 0.8949 0.1402
vn -0.0125 0.9878 0.1554
vn 0.4568 0.8675 0.1967
vn 0.6193 0.7536 0.2203
vn 0.1738 0.9296 0.3249
vn 0.2238 0.9319 0.2855
vn 0.0401 0.9215 0.3862
vn -0.1009 0.9022 0.4194
vn -0.1757 0.9051 0.3871
vn -0.3447 0.9068 0.2425
vn -0.3569 0.9330 0.0442
vn -0.0400 0.9991 -0.0080
vn 0.3611 0.9299 0.0696
vn 0.5732 0.8075 0.1395
vn 0.0923 0.9418 0.3232
vn 0.1168 0.9538 0.2766
vn 0.0201 0.9304 0.3659
vn -0.1036 0.9327 0.3454
vn -0.1284 0.9394 0.3178
vn -0.1704 0.9611 0.2172
vn -0.2285 0.9734 0.0177
vn -0.0875 0.9951 -0.0443
vn 0.2663 0.9622 0.0574
vn 0.4875 0.8656 0.1143
vn 0.0093 0.9611 0.2759
vn 0.0416 0.9707 0.2367
vn 0.0227 0.9485 0.3160
vn -0.0390 0.9638 0.2636
vn -0.1175 0.9741 0.1931
vn -0.0736 0.9803 0.1833
vn -0.1111 0.9833 0.1439
vn -0.1129 0.9886 0.1000
vn 0.1715 0.9767 0.1292
vn 0.3954 0.9046 0.1590
vn -0.0612 0.9677 0.2446
vn -0.0136 0.9774 0.2106
vn -0.0046 0.9529 0.3033
vn 0.0261 0.9485 0.3157
vn -0.0779 0.9581 0.2756
vn -0.0748 0.9652 0.2505
vn -0.0702 0.9657 0.2499
vn -0.0601 0.9784 0.1979
vn 0.1543 0.9784 0.1375
vn 0.3299 0.9361 0.1215
vn -0.1186 0.9721 0.2021
vn -0.0896 0.9798 0.1787
vn -0.0564 0.9654 0.2544
vn 0.0101 0.9508 0.3095
vn -0.0262 0.9494 0.3129
vn -0.0398 0.9658 0.2561
vn -0.0241 0.9846 0.1734
vn 0.0244 0.9960 0.0853
vn 0.1518 0.9865 0.0609
vn 0.2497 0.9652 0.0778
vn -0.1823 0.9744 0.1315
vn -0.2294 0.9694 0.0871
vn -0.0826 0.9811 0.1748
vn -0.0099 0.9860 0.1662
vn 0.0154 0.9904 0.1376
vn 0.0160 0.9955 0.0929
vn 0.0568 0.9980 0.0290
vn 0.1076 0.9922 -0.0633
vn 0.1298 0.9862 -0.1028
vn 0.1429 0.9853 -0.0937
vn -0.2497 0.9675 0.0387
vn -0.3774 0.9260 -0.0029
vn -0.0837 0.9932 0.0803
vn 0.0046 0.9973 0.0733
vn 0.0462 0.9976 0.0519
vn 0.0525 0.9983 0.0239
vn 0.1136 0.9934 -0.0143
vn 0.1910 0.9784 -0.0788
vn 0.1239 0.9839 -0.1288
vn 0.0241 0.9905 -0.1353
vn -0.2859 0.9583 -0.0002
vn -0.4088 0.9126 0.0002
vn -0.1069 0.9940 0.0223
vn 0.0010 0.9982 0.0596
vn 0.0615 0.9958 0.0679
vn 0.0876 0.9953 0.0403
vn 0.1451 0.9894 0.0045
vn 0.2321 0.9726 -0.0112
vn 0.1176 0.9930 -0.0027
vn -0.0500 0.9987 0.0074
vn -0.2688 0.9627 0.0302
vn -0.3555 0.9333 0.0506
vn -0.1237 0.9923 0.0056
vn -0.0120 0.9999 0.0020
vn 0.0600 0.9981 0.0097
vn 0.0983 0.9948 0.0273
vn 0.1472 0.9879 0.0486
vn 0.2170 0.9731 0.0777
vn 0.1023 0.9891 0.1054
vn -0.0555 0.9919 0.1140
vn -0.2056 0.9738 -0.0975
vn -0.2475 0.9679 -0.0438
vn -0.0996 0.9805 -0.1693
vn -0.0198 0.9828 -0.1834
vn 0.0038 0.9923 -0.1238
vn 0.0304 0.9995 -0.0060
vn 0.1086 0.9901 0.0893
vn 0.1841 0.9734 0.1361
vn 0.1138 0.9841 0.1363
vn 0.0242 0.9926 0.1187
vn -0.0907 0.9400 -0.3289
vn -0.0443 0.9624 -0.2679
vn -0.0685 0.9165 -0.3941
vn -0.0591 0.9258 -0.3732
vn -0.1150 0.9565 -0.2681
vn -0.0905 0.9879 -0.1262
vn 0.0413 0.9990 -0.0157
vn 0.1456 0.9878 0.0541
vn 0.1730 0.9842 0.0371
vn 0.2015 0.9794 -0.0095
vn 0.0593 0.8781 -0.4747
vn 0.1981 0.8961 -0.3971
vn -0.0775 0.8523 -0.5173
vn -0.1852 0.8904 -0.4158
vn -0.2477 0.9335 -0.2592
vn -0.1539 0.9691 -0.1926
vn -0.0150 0.9848 -0.1729
vn 0.1047 0.9851 -0.1361
vn 0.2396 0.9587 -0.1530
vn 0.3580 0.9130 -0.1953
vn 0.1259 0.8348 -0.5359
vn 0.3476 0.8054 -0.4801
vn -0.1866 0.8668 -0.4623
vn -0.3410 0.8848 -0.3176
vn -0.3338 0.9196 -0.2073
vn -0.1546 0.9706 -0.1845
vn -0.0113 0.9774 -0.2110
vn 0.1286 0.9524 -0.2764
vn 0.3100 0.8815 -0.3562
vn 0.4129 0.8118 -0.4129
vn 0.0824 0.8435 -0.5307
vn 0.4198 0.7444 -0.5192
vn -0.3272 0.8496 -0.4136
vn -0.3972 0.8567 -0.3291
vn -0.3578 0.8720 -0.3341
vn -0.1831 0.9347 -0.3045
vn 0.0236 0.9575 -0.2872
vn 0.2200 0.9111 -0.3484
vn 0.3952 0.8186 -0.4168
vn 0.4765 0.7731 -0.4185
vn 0.0766 0.9033 -0.4221
vn 0.5113 0.7747 -0.3720
vn -0.3769 0.8132 -0.4434
vn -0.3814 0.8096 -0.4461
vn -0.3357 0.8247 -0.4551
vn -0.2036 0.8542 -0.4785
vn 0.0351 0.8743 -0.4841
vn 0.2350 0.8588 -0.4553
vn 0.4077 0.8299 -0.3809
vn 0.5303 0.7863 -0.3171
vn 0.1380 0.9315 -0.3364
vn 0.5759 0.7812 -0.2406
vn -0.2926 0.8506 -0.4369
vn -0.3209 0.7765 -0.5422
vn -0.2986 0.7641 -0.5719
vn -0.1721 0.7755 -0.6074
vn 0.0032 0.7966 -0.6044
vn 0.0729 0.8747 -0.4792
vn 0.3237 0.9018 -0.2864
vn 0.5794 0.7982 -0.1645
vn 0.2076 0.8904 -0.4050
vn 0.6487 0.7161 -0.2576
vn -0.2067 0.8706 -0.4463
vn -0.2003 0.8452 -0.4954
vn -0.2503 0.7657 -0.5925
vn -0.1846 0.7625 -0.6201
vn -0.1411 0.8337 -0.5338
vn -0.1996 0.9316 -0.3037
vn 0.2017 0.9709 -0.1285
vn 0.6483 0.7569 -0.0818
vn 0.2557 0.9101 -0.3262
vn 0.7374 0.6438 -0.2042
vn -0.2136 0.8937 -0.3945
vn -0.1556 0.9050 -0.3959
vn -0.1948 0.8847 -0.4234
vn -0.2117 0.8583 -0.4673
vn -0.2830 0.8433 -0.4569
vn -0.3980 0.8603 -0.3184
vn 0.1367 0.9662 -0.2185
vn 0.6865 0.7123 -0.1461
vn 0.3594 0.9283 -0.0952
vn 0.7647 0.6440 -0.0194
vn -0.1688 0.9626 -0.2121
vn -0.1594 0.9459 -0.2825
vn -0.1373 0.9391 -0.3151
vn -0.1830 0.9114 -0.3686
vn -0.2749 0.8678 -0.4139
vn -0.4701 0.7898 -0.3939
vn 0.0627 0.9448 -0.3214
vn 0.6394 0.7539 -0.1508
vn 0.4770 0.8683 -0.1362
vn 0.7654 0.6399 -0.0679
vn -0.1358 0.9790 -0.1516
vn -0.1679 0.9795 -0.1109
vn -0.0537 0.9848 -0.1653
vn -0.1513 0.9606 -0.2330
vn -0.3002 0.9335 -0.1961
vn -0.5154 0.8489 -0.1168
vn -0.0455 0.9948 -0.0906
vn 0.5899 0.8057 -0.0537
vn 0.4543 0.8467 -0.2767
vn 0.8087 0.5705 -0.1428
vn -0.2023 0.9296 -0.3081
vn -0.1909 0.9592 -0.2084
vn -0.0516 0.9902 -0.1296
vn -0.2115 0.9774 0.0034
vn -0.3834 0.9131 0.1382
vn -0.5455 0.8169 0.1873
vn -0.0005 0.9915 0.1299
vn 0.6251 0.7798 0.0338
vn 0.4669 0.8842 -0.0106
vn 0.8596 0.5069 0.0643
vn -0.1715 0.9778 -0.1202
vn -0.2774 0.9452 -0.1719
vn -0.2364 0.9716 -0.0013
vn -0.3542 0.9029 0.2433
vn -0.4168 0.8468 0.3305
vn -0.4974 0.8296 0.2537
vn 0.0624 0.9780 0.1992
vn 0.6483 0.7515 0.1219
vn 0.5021 0.7781 0.3773
vn 0.8426 0.5001 0.1999
vn -0.0901 0.9072 0.4110
vn -0.2725 0.8890 0.3679
vn -0.3624 0.8420 0.3995
vn -0.3894 0.8188 0.4217
vn -0.3779 0.8484 0.3706
vn -0.4194 0.8552 0.3043
vn 0.0878 0.9503 0.2986
vn 0.6187 0.7531 0.2235
vn 0.3910 0.7682 0.5069
vn 0.8090 0.5292 0.2558
vn -0.1307 0.7380 0.6620
vn -0.1981 0.7042 0.6817
vn -0.2839 0.7219 0.6310
vn -0.2678 0.8077 0.5252
vn -0.3213 0.8491 0.4193
vn -0.3880 0.8336 0.3932
vn 0.1158 0.9003 0.4195
vn 0.6113 0.7331 0.2980
vn 0.2484 0.8328 0.4947
vn 0.7787 0.5708 0.2602
vn -0.2917 0.7594 0.5815
vn -0.2271 0.7033 0.6736
vn -0.1425 0.7345 0.6634
vn -0.0865 0.8172 0.5697
vn -0.2697 0.8435 0.4644
vn -0.3894 0.8180 0.4232
vn 0.1484 0.8936 0.4236
vn 0.6457 0.6946 0.3170
vn 0.1678 0.8535 0.4932
vn 0.7046 0.6101 0.3623
vn -0.3910 0.7466 0.5382
vn -0.3024 0.7411 0.5994
vn -0.0200 0.8075 0.5895
vn 0.0335 0.8497 0.5261
vn -0.2270 0.8545 0.4673
vn -0.3606 0.8452 0.3944
vn 0.1697 0.9158 0.3640
vn 0.6699 0.6926 0.2676
vn 0.1281 0.7945 0.5936
vn 0.5771 0.6891 0.4382
vn -0.3978 0.7216 0.5666
vn -0.2351 0.8401 0.4887
vn 0.0803 0.9201 0.3832
vn 0.0450 0.9188 0.3920
vn -0.2073 0.8913 0.4033
vn -0.2739 0.9062 0.3222
vn 0.1777 0.9428 0.2821
vn 0.6135 0.7473 0.2550
vn 0.0320 0.8499 0.5260
vn 0.4151 0.8081 0.4178
vn -0.3320 0.8182 0.4693
vn -0.0994 0.9243 0.3686
vn 0.1331 0.9481 0.2886
vn 0.0062 0.9579 0.2869
vn -0.1700 0.9536 0.2485
vn -0.1623 0.9764 0.1424
vn 0.1495 0.9819 0.1161
vn 0.4733 0.8673 0.1540
vn -0.0630 0.9250 0.3746
vn 0.2313 0.9116 0.3399
vn -0.2368 0.9187 0.3161
vn -0.0156 0.9684 0.2488
vn 0.1267 0.9622 0.2411
vn 0.0169 0.9688 0.2471
vn -0.0688 0.9855 0.1548
vn -0.0371 0.9993 0.0083
vn 0.0725 0.9973 0.0052
vn 0.2154 0.9737 0.0739
vn -0.0915 0.9678 0.2345
vn 0.0907 0.9686 0.2313
vn -0.1487 0.9721 0.1814
vn 0.0160 0.9922 0.1234
vn 0.0819 0.9860 0.1452
vn 0.0123 0.9784 0.2062
vn 0.0400 0.9810 0.1898
vn 0.0661 0.9928 0.1000
vn -0.0116 0.9963 0.0847
vn -0.0015 0.9936 0.1125
vn -0.0831 0.9851 0.1502
vn -0.0210 0.9861 0.1650
vn -0.0511 0.9961 0.0713
vn 0.0082 0.9995 0.0310
vn -0.0084 0.9932 0.1161
vn -0.0133 0.9838 0.1789
vn 0.1037 0.9832 0.1503
vn 0.1416 0.9861 0.0868
vn -0.0350 0.9982 0.0490
vn -0.1089 0.9929 0.0469
vn -0.0516 0.9985 -0.0160
vn -0.0942 0.9955 0.0042
vn 0.0158 0.9987 -0.0478
vn -0.0535 0.9984 -0.0139
vn -0.0885 0.9944 0.0580
vn 0.0141 0.9985 0.0517
vn 0.1736 0.9844 -0.0281
vn 0.2166 0.9679 -0.1276
vn -0.0581 0.9864 -0.1539
vn -0.2500 0.9608 -0.1193
vn -0.0323 0.9810 -0.1915
vn -0.0675 0.9793 -0.1909
vn -0.0225 0.9897 -0.1411
vn -0.1262 0.9905 -0.0540
vn -0.1074 0.9939 -0.0228
vn 0.0601 0.9971 -0.0456
vn 0.2438 0.9653 -0.0931
vn 0.2705 0.9526 -0.1389
vn -0.0801 0.9846 -0.1549
vn -0.3464 0.9265 -0.1469
vn -0.0412 0.9789 -0.2002
vn -0.0090 0.9776 -0.2103
vn -0.0926 0.9819 -0.1653
vn -0.1656 0.9778 -0.1284
vn -0.1217 0.9877 -0.0983
vn 0.0631 0.9959 -0.0638
vn 0.2639 0.9638 -0.0385
vn 0.2783 0.9603 -0.0200
vn -0.0484 0.9974 -0.0533
vn -0.2799 0.9554 -0.0936
vn -0.0717 0.9887 -0.1314
vn -0.0118 0.9879 -0.1548
vn -0.1511 0.9860 -0.0704
vn -0.1978 0.9802 -0.0081
vn -0.1230 0.9924 -0.0023
vn 0.0688 0.9966 -0.0449
vn 0.2360 0.9709 -0.0408
vn 0.2470 0.9689 0.0163
vn 0.0381 0.9992 -0.0109
vn -0.1020 0.9925 -0.0677
vn -0.1345 0.9760 -0.1713
vn -0.1099 0.9694 -0.2195
vn -0.2502 0.9671 -0.0463
vn -0.2646 0.9606 0.0851
vn -0.0587 0.9939 0.0936
vn 0.1366 0.9906 -0.0070
vn 0.1960 0.9799 -0.0356
vn 0.2170 0.9761 -0.0062
vn 0.1740 0.9805 -0.0910
vn 0.1063 0.9763 -0.1883
vn -0.2297 0.9345 -0.2719
vn -0.2261 0.9149 -0.3345
vn -0.3568 0.9225 -0.1470
vn -0.3021 0.9506 -0.0707
vn -0.0121 0.9975 -0.0695
vn 0.1769 0.9817 -0.0695
vn 0.1838 0.9801 -0.0743
vn 0.2427 0.9618 -0.1266
vn 0.3137 0.9156 -0.2516
vn 0.2531 0.9101 -0.3280
vn -0.2926 0.9254 -0.2410
vn -0.2454 0.9394 -0.2394
vn -0.4058 0.8858 -0.2249
vn -0.2886 0.9249 -0.2476
vn -0.0330 0.9667 -0.2537
vn 0.1338 0.9733 -0.1866
vn 0.2076 0.9642 -0.1647
vn 0.2878 0.9410 -0.1781
vn 0.3717 0.9155 -0.1538
vn 0.3637 0.9210 -0.1391
vn -0.2170 0.9331 -0.2868
vn -0.0628 0.9763 -0.2069
vn -0.4053 0.8528 -0.3293
vn -0.2965 0.9040 -0.3080
vn -0.0460 0.9511 -0.3054
vn 0.1299 0.9301 -0.3436
vn 0.2275 0.8946 -0.3846
vn 0.1826 0.9275 -0.3261
vn 0.2774 0.9529 -0.1220
vn 0.4245 0.9054 -0.0085
vn -0.0293 0.9940 -0.1047
vn 0.2714 0.9624 -0.0068
vn -0.3895 0.8874 -0.2463
vn -0.3007 0.8965 -0.3253
vn 0.0022 0.9186 -0.3950
vn 0.2182 0.8501 -0.4793
vn 0.2117 0.8340 -0.5094
vn -0.0724 0.9201 -0.3850
vn 0.0481 0.9919 -0.1177
vn 0.3350 0.9413 0.0415
vn 0.0688 0.9560 0.2851
vn 0.3614 0.8856 0.2915
vn -0.2753 0.9478 0.1606
vn -0.1754 0.9794 -0.0995
vn 0.1133 0.9430 -0.3130
vn 0.2616 0.9115 -0.3173
vn 0.0901 0.9861 -0.1396
vn -0.2382 0.9709 0.0229
vn -0.1356 0.9805 0.1422
vn 0.1421 0.9730 0.1816
vn 0.0563 0.9072 0.4170
vn 0.1825 0.9059 0.3820
vn -0.1090 0.9092 0.4018
vn 0.0151 0.9536 0.3006
vn 0.2325 0.9584 0.1654
vn 0.1826 0.9701 0.1600
vn -0.0745 0.9550 0.2871
vn -0.2877 0.8935 0.3446
vn -0.1241 0.9401 0.3175
vn 0.1004 0.9564 0.2743
vn -0.0133 0.9466 0.3220
vn -0.1218 0.9486 0.2919
vn -0.0215 0.9492 0.3137
vn 0.0465 0.9612 0.2719
vn 0.2249 0.9131 0.3402
vn 0.1134 0.9016 0.4174
vn -0.1072 0.9092 0.4023
vn -0.2089 0.9397 0.2706
vn -0.0422 0.9920 0.1190
vn 0.1135 0.9904 0.0788
vn -0.1166 0.9644 0.2372
vn -0.3628 0.9204 0.1456
vn 0.0657 0.9617 0.2662
vn 0.0924 0.9826 0.1610
vn 0.1296 0.9776 0.1655
vn 0.0744 0.9640 0.2554
vn 0.0172 0.9824 0.1859
vn -0.0389 0.9992 -0.0020
vn -0.0202 0.9969 -0.0754
vn -0.0162 0.9983 -0.0564
vn -0.2161 0.9484 0.2318
vn -0.4565 0.8726 0.1736
vn 0.1332 0.9608 0.2431
vn 0.2239 0.9644 0.1405
vn 0.1324 0.9911 -0.0107
vn 0.1216 0.9817 -0.1463
vn 0.1246 0.9540 -0.2727
vn 0.0099 0.9622 -0.2721
vn -0.1368 0.9830 -0.1222
vn -0.2677 0.9634 -0.0112
vn -0.2636 0.9500 0.1673
vn -0.5448 0.8300 0.1194
vn 0.1824 0.9677 0.1742
vn 0.2998 0.9447 0.1326
vn 0.3009 0.9536 -0.0004
vn 0.3323 0.9082 -0.2545
vn 0.1784 0.8891 -0.4215
vn -0.0137 0.8808 -0.4733
vn -0.3225 0.8733 -0.3652
vn -0.5510 0.8090 -0.2048
vn -0.2888 0.9547 0.0711
vn -0.6490 0.7603 0.0260
vn 0.2464 0.9674 0.0587
vn 0.3276 0.9448 -0.0094
vn 0.3731 0.9275 -0.0201
vn 0.4947 0.8659 -0.0739
vn 0.2937 0.9282 -0.2285
vn -0.0086 0.9613 -0.2754
vn -0.4105 0.8896 -0.2003
vn -0.7259 0.6772 -0.1202
vn -0.3115 0.9501 -0.0157
vn -0.7084 0.7051 -0.0309
vn 0.3160 0.9480 -0.0370
vn 0.3770 0.9164 -0.1341
vn 0.3498 0.9238 -0.1556
vn 0.5036 0.8594 -0.0883
vn 0.3045 0.9525 -0.0080
vn -0.0451 0.9972 0.0595
vn -0.4555 0.8897 0.0308
vn -0.7420 0.6699 -0.0252
vn -0.3195 0.9463 -0.0495
vn -0.7490 0.6601 -0.0560
vn 0.3326 0.9430 -0.0082
vn 0.4405 0.8977 -0.0067
vn 0.3713 0.9248 -0.0828
vn 0.4485 0.8900 -0.0815
vn 0.2433 0.9696 0.0255
vn -0.0404 0.9986 0.0347
vn -0.3686 0.9289 -0.0366
vn -0.7014 0.7091 -0.0715
vn -0.3227 0.9462 -0.0222
vn -0.7565 0.6540 0.0033
vn 0.2950 0.9554 -0.0088
vn 0.4305 0.9009 0.0544
vn 0.4247 0.9027 0.0686
vn 0.3811 0.9190 0.1004
vn 0.2358 0.9628 0.1317
vn 0.0172 0.9952 0.0964
vn -0.3637 0.9283 0.0764
vn -0.6576 0.7486 0.0845
vn -0.2817 0.9594 0.0117
vn -0.7045 0.7070 0.0619
vn 0.2478 0.9687 -0.0164
vn 0.3792 0.9244 0.0411
vn 0.4234 0.9009 0.0951
vn 0.2890 0.9390 0.1863
vn 0.2315 0.9343 0.2710
vn 0.0434 0.9570 0.2867
vn -0.3951 0.8807 0.2611
vn -0.5866 0.7752 0.2344
vn -0.2175 0.9668 -0.1344
vn -0.5950 0.8012 -0.0632
vn 0.2133 0.9605 -0.1785
vn 0.3378 0.9287 -0.1528
vn 0.3856 0.9148 -0.1200
vn 0.1766 0.9839 -0.0274
vn 0.1344 0.9834 0.1219
vn 0.0490 0.9741 0.2208
vn -0.3748 0.9157 0.1446
vn -0.5506 0.8318 0.0695
vn -0.1279 0.9257 -0.3561
vn -0.4270 0.8632 -0.2695
vn 0.1997 0.8819 -0.4269
vn 0.2789 0.8747 -0.3963
vn 0.2934 0.9080 -0.2990
vn 0.0918 0.9679 -0.2339
vn -0.0311 0.9933 -0.1108
vn 0.0099 0.9993 0.0363
vn -0.2397 0.9708 -0.0027
vn -0.4898 0.8672 -0.0899
vn 0.0194 0.9041 -0.4268
vn -0.1910 0.9217 -0.3375
vn 0.2018 0.8472 -0.4915
vn 0.1674 0.8864 -0.4315
vn 0.1868 0.9311 -0.3134
vn 0.0729 0.9646 -0.2533
vn -0.1692 0.9637 -0.2064
vn -0.1010 0.9927 -0.0661
vn -0.1451 0.9892 -0.0191
vn -0.3600 0.9313 -0.0547
vn 0.2061 0.9516 -0.2281
vn 0.0732 0.9858 -0.1507
vn 0.2282 0.9220 -0.3127
vn 0.1353 0.9189 -0.3704
vn 0.1021 0.9209 -0.3762
vn 0.0054 0.9581 -0.2864
vn -0.2082 0.9553 -0.2097
vn -0.2328 0.9616 -0.1455
vn -0.1635 0.9857 -0.0395
vn -0.2340 0.9721 0.0121
vn 0.3461 0.9379 -0.0248
vn 0.2951 0.9540 0.0530
vn 0.2928 0.9431 -0.1577
vn 0.2164 0.9427 -0.2540
vn 0.0675 0.9568 -0.2827
vn -0.1443 0.9662 -0.2134
vn -0.2857 0.9566 -0.0571
vn -0.3431 0.9361 0.0773
vn -0.2293 0.9572 0.1765
vn -0.1727 0.9627 0.2082
vn 0.4385 0.8987 -0.0027
vn 0.4717 0.8809 0.0376
vn 0.3162 0.9485 -0.0188
vn 0.2182 0.9740 0.0607
vn 0.0773 0.9918 0.1017
vn -0.2286 0.9666 0.1158
vn -0.4362 0.8670 0.2409
vn -0.3642 0.8412 0.3995
vn -0.1445 0.9304 0.3367
vn -0.0578 0.9668 0.2490
vn 0.4180 0.9071 0.0478
vn 0.5316 0.8468 -0.0139
vn 0.2228 0.9550 0.1956
vn 0.1352 0.9424 0.3058
vn 0.1072 0.9429 0.3152
vn -0.2403 0.9189 0.3126
vn -0.5378 0.7759 0.3297
vn -0.2752 0.9194 0.2810
vn 0.0289 0.9886 0.1473
vn 0.1073 0.9926 0.0559
vn 0.2779 0.9606 0.0023
vn 0.4876 0.8668 -0.1045
vn 0.0444 0.9734 0.2247
vn 0.1006 0.9377 0.3324
vn 0.1094 0.9296 0.3520
vn -0.2653 0.9023 0.3396
vn -0.4938 0.8513 0.1772
vn -0.1998 0.9785 0.0502
vn 0.1516 0.9877 -0.0377
vn 0.2675 0.9602 -0.0794
vn 0.1452 0.9845 -0.0985
vn 0.4724 0.8738 -0.1154
vn -0.1183 0.9930 -0.0006
vn 0.0309 0.9904 0.1346
vn 0.0248 0.9586 0.2836
vn -0.2544 0.9102 0.3267
vn -0.3799 0.8946 0.2351
vn -0.1533 0.9732 0.1710
vn 0.2377 0.9666 0.0959
vn 0.4352 0.8998 0.0314
vn 0.1534 0.9805 -0.1227
vn 0.5542 0.8303 -0.0584
vn -0.2397 0.9654 -0.1023
vn -0.1134 0.9922 0.0508
vn -0.0663 0.9846 0.1614
vn -0.2501 0.9530 0.1709
vn -0.3186 0.9371 0.1424
vn -0.1257 0.9846 0.1211
vn 0.2777 0.9561 0.0933
vn 0.5416 0.8378 0.0692
vn 0.1425 0.9897 -0.0088
vn 0.6164 0.7861 -0.0446
vn -0.3622 0.9261 0.1057
vn -0.1853 0.9589 0.2148
vn 0.0271 0.9948 0.0981
vn -0.1693 0.9791 -0.1128
vn -0.3126 0.9329 -0.1786
vn -0.1440 0.9783 -0.1485
vn 0.2698 0.9589 -0.0880
vn 0.5559 0.8299 -0.0477
vn 0.0646 0.9677 0.2438
vn 0.5329 0.8293 0.1676
vn -0.3830 0.8837 0.2690
vn -0.1391 0.9713 0.1931
vn 0.1744 0.9779 0.1147
vn -0.0419 0.9988 0.0229
vn -0.3116 0.9491 -0.0458
vn -0.1872 0.9803 -0.0636
vn 0.2250 0.9740 -0.0253
vn 0.5366 0.8438 0.0042
vn 0.0239 0.9325 0.3602
vn 0.3266 0.8765 0.3537
vn -0.2460 0.9469 0.2069
vn -0.0982 0.9922 0.0769
vn 0.0943 0.9781 0.1852
vn -0.0223 0.9460 0.3233
vn -0.1946 0.9486 0.2494
vn -0.1648 0.9788 0.1214
vn 0.1575 0.9782 0.1348
vn 0.4709 0.8674 0.1606
vn 0.1125 0.9795 0.1670
vn 0.3050 0.9252 0.2257
vn -0.0793 0.9966 0.0189
vn -0.1282 0.9917 -0.0037
vn -0.1389 0.9745 0.1758
vn -0.0648 0.9439 0.3238
vn -0.0439 0.9595 0.2781
vn -0.1047 0.9777 0.1819
vn 0.0942 0.9786 0.1826
vn 0.3416 0.9171 0.2053
vn 0.1885 0.9692 0.1582
vn 0.3522 0.9205 0.1689
vn -0.0066 0.9911 0.1330
vn -0.1672 0.9773 0.1302
vn -0.2659 0.9523 0.1494
vn -0.0823 0.9839 0.1584
vn 0.0276 0.9875 0.1553
vn -0.0730 0.9868 0.1444
vn 0.0631 0.9868 0.1494
vn 0.2570 0.9540 0.1544
vn 0.1157 0.9503 0.2888
vn 0.2420 0.9520 0.1875
vn -0.0142 0.9180 0.3963
vn -0.1032 0.9337 0.3427
vn -0.1831 0.9681 0.1710
vn -0.0599 0.9973 0.0410
vn 0.0144 0.9993 0.0353
vn -0.0797 0.9944 0.0688
vn 0.0587 0.9954 0.0762
vn 0.2510 0.9653 0.0715
vn -0.0515 0.9648 0.2580
vn 0.0025 0.9835 0.1807
vn -0.0322 0.9444 0.3271
vn 0.0218 0.9599 0.2794
vn -0.0157 0.9882 0.1521
vn -0.0060 0.9992 0.0399
vn -0.0133 0.9998 0.0157
vn -0.0670 0.9977 -0.0023
vn 0.0614 0.9977 -0.0266
vn 0.2090 0.9776 -0.0250
vn -0.1547 0.9718 0.1777
vn -0.2317 0.9614 0.1484
vn -0.0078 0.9833 0.1815
vn 0.0760 0.9856 0.1512
vn 0.0822 0.9893 0.1204
vn 0.0663 0.9966 0.0474
vn 0.0345 0.9976 -0.0600
vn 0.0228 0.9817 -0.1892
vn 0.0132 0.9774 -0.2109
vn -0.0169 0.9867 -0.1615
vn -0.1758 0.9813 0.0780
vn -0.3628 0.9290 0.0733
vn 0.0255 0.9972 0.0703
vn 0.0640 0.9949 0.0779
vn 0.1015 0.9896 0.1014
vn 0.1538 0.9865 0.0566
vn 0.1641 0.9834 -0.0773
vn 0.1478 0.9651 -0.2163
vn -0.0921 0.9739 -0.2071
vn -0.3403 0.9294 -0.1426
vn -0.1561 0.9877 0.0114
vn -0.3683 0.9290 0.0342
vn 0.0378 0.9992 -0.0145
vn 0.0349 0.9994 -0.0036
vn 0.0735 0.9966 0.0364
vn 0.1844 0.9800 0.0748
vn 0.2564 0.9646 0.0613
vn 0.2179 0.9757 0.0228
vn -0.1506 0.9883 0.0254
vn -0.4911 0.8701 0.0419
vn -0.1137 0.9933 0.0186
vn -0.2862 0.9570 0.0462
vn 0.0377 0.9992 -0.0071
vn 0.0222 0.9997 -0.0037
vn 0.0390 0.9992 0.0083
vn 0.1471 0.9879 0.0482
vn 0.2644 0.9603 0.0891
vn 0.2013 0.9698 0.1376
vn -0.1775 0.9690 0.1720
vn -0.4579 0.8735 0.1653
vn -0.0625 0.9977 0.0272
vn -0.1695 0.9839 0.0574
vn 0.0304 0.9995 0.0018
vn 0.0181 0.9998 0.0110
vn 0.0193 0.9995 0.0250
vn 0.1148 0.9924 0.0430
vn 0.2416 0.9683 0.0640
vn 0.1350 0.9833 0.1218
vn -0.2014 0.9652 0.1665
vn -0.3808 0.9110 0.1578
vn -0.0044 0.9995 -0.0327
vn -0.0642 0.9979 0.0019
vn 0.0320 0.9967 -0.0739
vn -0.0054 0.9982 -0.0591
vn -0.0140 0.9998 -0.0107
vn 0.0882 0.9954 0.0362
vn 0.1887 0.9766 0.1027
vn 0.0765 0.9820 0.1728
vn -0.1724 0.9728 0.1545
vn -0.2990 0.9479 0.1099
vn 0.0468 0.9971 -0.0598
vn 0.0164 0.9991 -0.0381
vn 0.0381 0.9959 -0.0812
vn -0.0388 0.9970 -0.0663
vn -0.0445 0.9980 -0.0448
vn 0.0523 0.9984 -0.0180
vn 0.1036 0.9933 0.0518
vn 0.0431 0.9923 0.1158
vn -0.1053 0.9901 0.0926
vn -0.2029 0.9777 0.0545
vn 0.0746 0.9964 -0.0399
vn 0.0525 0.9981 -0.0310
vn 0.0377 0.9981 -0.0482
vn -0.0559 0.9975 -0.0438
vn -0.0403 0.9979 -0.0513
vn 0.0446 0.9962 -0.0739
vn 0.0797 0.9910 -0.1073
vn 0.0210 0.9923 -0.1219
vn -0.1035 0.9915 -0.0779
vn -0.1670 0.9850 -0.0428
vn 0.0715 0.9900 -0.1213
vn 0.0443 0.9902 -0.1322
vn 0.0416 0.9923 -0.1164
vn -0.0241 0.9871 -0.1580
vn -0.0017 0.9752 -0.2215
vn 0.0671 0.9622 -0.2638
vn 0.1020 0.9520 -0.2885
vn -0.0258 0.9657 -0.2584
vn -0.1649 0.9689 -0.1845
vn -0.1836 0.9720 -0.1466
vn 0.0321 0.9754 -0.2179
vn 0.0097 0.9689 -0.2472
vn 0.0525 0.9793 -0.1955
vn 0.0767 0.9593 -0.2716
vn 0.0828 0.9160 -0.3924
vn 0.0531 0.9051 -0.4219
vn 0.0294 0.9445 -0.3272
vn -0.0837 0.9696 -0.2298
vn -0.1750 0.9585 -0.2249
vn -0.1662 0.9549 -0.2459
vn -0.0066 0.9601 -0.2793
vn -0.0285 0.9561 -0.2917
vn 0.0688 0.9579 -0.2788
vn 0.1950 0.9183 -0.3445
vn 0.1948 0.8657 -0.4611
vn -0.0109 0.8691 -0.4944
vn -0.1182 0.9174 -0.3800
vn -0.1336 0.9526 -0.2732
vn -0.1378 0.9553 -0.2614
vn -0.1195 0.9530 -0.2784
vn 0.0028 0.9293 -0.3692
vn -0.0180 0.9366 -0.3500
vn 0.0870 0.9147 -0.3946
vn 0.2654 0.8704 -0.4146
vn 0.2839 0.8378 -0.4663
vn -0.0519 0.8610 -0.5058
vn -0.2683 0.8659 -0.4221
vn -0.2108 0.9275 -0.3088
vn -0.1101 0.9561 -0.2714
vn -0.0522 0.9573 -0.2843
vn 0.0739 0.8896 -0.4507
vn 0.0658 0.9117 -0.4054
vn 0.1285 0.8426 -0.5229
vn 0.2664 0.8070 -0.5270
vn 0.2760 0.8186 -0.5037
vn -0.0863 0.8794 -0.4681
vn -0.3963 0.8458 -0.3571
vn -0.3159 0.9169 -0.2438
vn -0.0691 0.9716 -0.2263
vn 0.0818 0.9626 -0.2583
vn 0.1929 0.8007 -0.5672
vn 0.2473 0.8294 -0.5008
vn 0.1675 0.7533 -0.6359
vn 0.2091 0.7534 -0.6234
vn 0.1394 0.8375 -0.5283
vn -0.1744 0.9067 -0.3840
vn -0.4823 0.8354 -0.2634
vn -0.4086 0.8929 -0.1887
vn 0.0023 0.9786 -0.2056
vn 0.2976 0.9226 -0.2452
vn 0.3126 0.7060 -0.6354
vn 0.4722 0.6973 -0.5393
vn 0.1482 0.7169 -0.6812
vn 0.1100 0.7725 -0.6254
vn -0.0532 0.8545 -0.5166
vn -0.3107 0.8867 -0.3422
vn -0.5266 0.8235 -0.2108
vn -0.4549 0.8705 -0.1875
vn 0.0835 0.9628 -0.2568
vn 0.5117 0.8088 -0.2897
vn 0.3837 0.7362 -0.5575
vn 0.6478 0.6117 -0.4539
vn 0.0938 0.7844 -0.6131
vn 0.0032 0.8302 -0.5574
vn -0.2205 0.8659 -0.4489
vn -0.4111 0.8468 -0.3374
vn -0.5077 0.8039 -0.3096
vn -0.4217 0.8295 -0.3661
vn 0.1372 0.8952 -0.4240
vn 0.5861 0.7075 -0.3948
vn 0.4178 0.8143 -0.4029
vn 0.7178 0.6139 -0.3283
vn 0.0765 0.8951 -0.4393
vn -0.0850 0.9111 -0.4032
vn -0.3105 0.8869 -0.3420
vn -0.4095 0.8448 -0.3445
vn -0.3952 0.7965 -0.4576
vn -0.3131 0.7523 -0.5797
vn 0.1376 0.7834 -0.6061
vn 0.4822 0.7022 -0.5238
vn 0.3768 0.8745 0.3054
vn 0.6277 0.7091 0.3211
vn 0.0629 0.9351 0.3488
vn -0.1092 0.9273 0.3579
vn -0.2838 0.8947 0.3450
vn -0.3171 0.9040 0.2866
vn -0.2584 0.9557 0.1409
vn -0.2386 0.9711 0.0002
vn 0.0643 0.9977 -0.0202
vn 0.3536 0.9352 0.0201
vn 0.2198 0.5164 0.8276
vn 0.3478 0.5417 0.7652
vn 0.0190 0.4641 0.8856
vn -0.0526 0.4621 0.8853
vn -0.1177 0.4967 0.8599
vn -0.1109 0.5758 0.8100
vn -0.0875 0.6730 0.7344
vn -0.1249 0.7561 0.6424
vn -0.0016 0.7814 0.6240
vn 0.1384 0.7577 0.6378
s 1
f 1//1 2//2 12//3 11//4
f 2//2 3//5 13//6 12//3
f 3//5 4//7 14//8 13//6
f 4//7 5//9 15//10 14//8
f 5//9 6//11 16//12 15//10
f 6//11 7//13 17//14 16//12
f 7//13 8//15 18//16 17//14
f 8//15 9//17 19//18 18//16
f 9//17 10//19 20//20 19//18
f 11//4 12//3 22//21 21//22
f 12//3 13//6 23//23 22//21
f 13//6 14//8 24//24 23//23
f 14//8 15//10 25//25 24//24
f 15//10 16//12 26//26 25//25
f 16//12 17//14 27//27 26//26
f 17//14 18//16 28//28 27//27
f 18//16 19//18 29//29 28//28
f 19//18 20//20 30//30 29//29
f 21//22 22//21 32//31 31//32
f 22//21 23//23 33//33 32//31
f 23//23 24//24 34//34 33//33
f 24//24 25//25 35//35 34//34
f 25//25 26//26 36//36 35//35
f 26//26 27//27 37//37 36//36
f 27//27 28//28 38//38 37//37
f 28//28 29//29 39//39 38//38
f 29//29 30//30 40//40 39//39
f 31//32 32//31 42//41 41//42
f 32//31 33//33 43//43 42//41
f 33//33 34//34 44//44 43//43
f 34//34 35//35 45//45 44//44
f 35//35 36//36 46//46 45//45
f 36//36 37//37 47//47 46//46
f 37//37 38//38 48//48 47//47
f 38//38 39//39 49//49 48//48
f 39//39 40//40 50//50 49//49
f 41//42 42//41 52//51 51//52
f 42//41 43//43 53//53 52//51
f 43//43 44//44 54//54 53//53
f 44//44 45//45 55//55 54//54
f 45//45 46//46 56//56 55//55
f 46//46 47//47 57//57 56//56
f 47//47 48//48 58//58 57//57
f 48//48 49//49 59//59 58//58
f 49//49 50//50 60//60 59//59
f 51//52 52//51 62//61 61//62
f 52//51 53//53 63//63 62//61
f 53//53 54//54 64//64 63//63
f 54//54 55//55 65//65 64//64
f 55//55 56//56 66//66 65//65
f 56//56 57//57 67//67 66//66
f 57//57 58//58 68//68 67//67
f 58//58 59//59 69//69 68//68
f 59//59 60//60 70//70 69//69
f 61//62 62//61 72//71 71//72
f 62//61 63//63 73//73 72//71
f 63//63 64//64 74//74 73//73
f 64//64 65//65 75//75 74//74
f 65//65 66//66 76//76 75//75
f 66//66 67//67 77//77 76//76
f 67//67 68//68 78//78 77//77
f 68//68 69//69 79//79 78//78
f 69//69 70//70 80//80 79//79
f 71//72 72//71 82//81 81//82
f 72//71 73//73 83//83 82//81
f 73//73 74//74 84//84 83//83
f 74//74 75//75 85//85 84//84
f 75//75 76//76 86//86 85//85
f 76//76 77//77 87//87 86//86
f 77//77 78//78 88//88 87//87
f 78//78 79//79 89//89 88//88
f 79//79 80//80 90//90 89//89
f 81//82 82//81 92//91 91//92
f 82//81 83//83 93//93 92//91
f 83//83 84//84 94//94 93//93
f 84//84 85//85 95//95 94//94
f 85//85 86//86 96//96 95//95
f 86//86 87//87 97//97 96//96
f 87//87 88//88 98//98 97//97
f 88//88 89//89 99//99 98//98
f 89//89 90//90 100//100 99//99
f 91//92 92//91 102//101 101//102
f 92//91 93//93 103//103 102//101
f 93//93 94//94 104//104 103//103
f 94//94 95//95 105//105 104//104
f 95//95 96//96 106//106 105//105
f 96//96 97//97 107//107 106//106
f 97//97 98//98 108//108 107//107
f 98//98 99//99 109//109 108//108
f 99//99 100//100 110//110 109//109
f 101//102 102//101 112//111 111//112
f 102//101 103//103 113//113 112//111
f 103//103 104//104 114//114 113//113
f 104//104 105//105 115//115 114//114
f 105//105 106//106 116//116 115//115
f 106//106 107//107 117//117 116//116
f 107//107 108//108 118//118 117//117
f 108//108 109//109 119//119 118//118
f 109//109 110//110 120//120 119//119
f 111//112 112//111 122//121 121//122
f 112//111 113//113 123//123 122//121
f 113//113 114//114 124//124 123//123
f 114//114 115//115 125//125 124//124
f 115//115 116//116 126//126 125//125
f 116//116 117//117 127//127 126//126
f 117//117 118//118 128//128 127//127
f 118//118 119//119 129//129 128//128
f 119//119 120//120 130//130 129//129
f 121//122 122//121 132//131 131//132
f 122//121 123//123 133//133 132//131
f 123//123 124//124 134//134 133//133
f 124//124 125//125 135//135 134//134
f 125//125 126//126 136//136 135//135
f 126//126 127//127 137//137 136//136
f 127//127 128//128 138//138 137//137
f 128//128 129//129 139//139 138//138
f 129//129 130//130 140//140 139//139
f 131//132 132//131 142//141 141//142
f 132//131 133//133 143//143 142//141
f 133//133 134//134 144//144 143//143
f 134//134 135//135 145//145 144//144
f 135//135 136//136 146//146 145//145
f 136//136 137//137 147//147 146//146
f 137//137 138//138 148//148 147//147
f 138//138 139//139 149//149 148//148
f 139//139 140//140 150//150 149//149
f 141//142 142//141 152//151 151//152
f 142//141 143//143 153//153 152//151
f 143//143 144//144 154//154 153//153
f 144//144 145//145 155//155 154//154
f 145//145 146//146 156//156 155//155
f 146//146 147//147 157//157 156//156
f 147//147 148//148 158//158 157//157
f 148//148 149//149 159//159 158//158
f 149//149 150//150 160//160 159//159
f 151//152 152//151 162//161 161//162
f 152//151 153//153 163//163 162//161
f 153//153 154//154 164//164 163//163
f 154//154 155//155 165//165 164//164
f 155//155 156//156 166//166 165//165
f 156//156 157//157 167//167 166//166
f 157//157 158//158 168//168 167//167
f 158//158 159//159 169//169 168//168
f 159//159 160//160 170//170 169//169
f 161//162 162//161 172//171 171//172
f 162//161 163//163 173//173 172//171
f 163//163 164//164 174//174 173//173
f 164//164 165//165 175//175 174//174
f 165//165 166//166 176//176 175//175
f 166//166 167//167 177//177 176//176
f 167//167 168//168 178//178 177//177
f 168//168 169//169 179//179 178//178
f 169//169 170//170 180//180 179//179
f 171//172 172//171 182//181 181//182
f 172//171 173//173 183//183 182//181
f 173//173 174//174 184//184 183//183
f 174//174 175//175 185//185 184//184
f 175//175 176//176 186//186 185//185
f 176//176 177//177 187//187 186//186
f 177//177 178//178 188//188 187//187
f 178//178 179//179 189//189 188//188
f 179//179 180//180 190//190 189//189
f 181//182 182//181 192//191 191//192
f 182//181 183//183 193//193 192//191
f 183//183 184//184 194//194 193//193
f 184//184 185//185 195//195 194//194
f 185//185 186//186 196//196 195//195
f 186//186 187//187 197//197 196//196
f 187//187 188//188 198//198 197//197
f 188//188 189//189 199//199 198//198
f 189//189 190//190 200//200 199//199
f 191//192 192//191 202//201 201//202
f 192//191 193//193 203//203 202//201
f 193//193 194//194 204//204 203//203
f 194//194 195//195 205//205 204//204
f 195//195 196//196 206//206 205//205
f 196//196 197//197 207//207 206//206
f 197//197 198//198 208//208 207//207
f 198//198 199//199 209//209 208//208
f 199//199 200//200 210//210 209//209
f 201//202 202//201 212//211 211//212
f 202//201 203//203 213//213 212//211
f 203//203 204//204 214//214 213//213
f 204//204 205//205 215//215 214//214
f 205//205 206//206 216//216 215//215
f 206//206 207//207 217//217 216//216
f 207//207 208//208 218//218 217//217
f 208//208 209//209 219//219 218//218
f 209//209 210//210 220//220 219//219
f 211//212 212//211 222//221 221//222
f 212//211 213//213 223//223 222//221
f 213//213 214//214 224//224 223//223
f 214//214 215//215 225//225 224//224
f 215//215 216//216 226//226 225//225
f 216//216 217//217 227//227 226//226
f 217//217 218//218 228//228 227//227
f 218//218 219//219 229//229 228//228
f 219//219 220//220 230//230 229//229
f 221//222 222//221 232//231 231//232
f 222//221 223//223 233//233 232//231
f 223//223 224//224 234//234 233//233
f 224//224 225//225 235//235 234//234
f 225//225 226//226 236//236 235//235
f 226//226 227//227 237//237 236//236
f 227//227 228//228 238//238 237//237
f 228//228 229//229 239//239 238//238
f 229//229 230//230 240//240 239//239
f 231//232 232//231 242//241 241//242
f 232//231 233//233 243//243 242//241
f 233//233 234//234 244//244 243//243
f 234//234 235//235 245//245 244//244
f 235//235 236//236 246//246 245//245
f 236//236 237//237 247//247 246//246
f 237//237 238//238 248//248 247//247
f 238//238 239//239 249//249 248//248
f 239//239 240//240 250//250 249//249
f 241//242 242//241 252//251 251//252
f 242//241 243//243 253//253 252//251
f 243//243 244//244 254//254 253//253
f 244//244 245//245 255//255 254//254
f 245//245 246//246 256//256 255//255
f 246//246 247//247 257//257 256//256
f 247//247 248//248 258//258 257//257
f 248//248 249//249 259//259 258//258
f 249//249 250//250 260//260 259//259
f 251//252 252//251 262//261 261//262
f 252//251 253//253 263//263 262//261
f 253//253 254//254 264//264 263//263
f 254//254 255//255 265//265 264//264
f 255//255 256//256 266//266 265//265
f 256//256 257//257 267//267 266//266
f 257//257 258//258 268//268 267//267
f 258//258 259//259 269//269 268//268
f 259//259 260//260 270//270 269//269
f 261//262 262//261 272//271 271//272
f 262//261 263//263 273//273 272//271
f 263//263 264//264 274//274 273//273
f 264//264 265//265 275//275 274//274
f 265//265 266//266 276//276 275//275
f 266//266 267//267 277//277 276//276
f 267//267 268//268 278//278 277//277
f 268//268 269//269 279//279 278//278
f 269//269 270//270 280//280 279//279
f 271//272 272//271 282//281 281//282
f 272//271 273//273 283//283 282//281
f 273//273 274//274 284//284 283//283
f 274//274 275//275 285//285 284//284
f 275//275 276//276 286//286 285//285
f 276//276 277//277 287//287 286//286
f 277//277 278//278 288//288 287//287
f 278//278 279//279 289//289 288//288
f 279//279 280//280 290//290 289//289
f 281//282 282//281 292//291 291//292
f 282//281 283//283 293//293 292//291
f 283//283 284//284 294//294 293//293
f 284//284 285//285 295//295 294//294
f 285//285 286//286 296//296 295//295
f 286//286 287//287 297//297 296//296
f 287//287 288//288 298//298 297//297
f 288//288 289//289 299//299 298//298
f 289//289 290//290 300//300 299//299
f 291//292 292//291 302//301 301//302
f 292//291 293//293 303//303 302//301
f 293//293 294//294 304//304 303//303
f 294//294 295//295 305//305 304//304
f 295//295 296//296 306//306 305//305
f 296//296 297//297 307//307 306//306
f 297//297 298//298 308//308 307//307
f 298//298 299//299 309//309 308//308
f 299//299 300//300 310//310 309//309
f 301//302 302//301 312//311 311//312
f 302//301 303//303 313//313 312//311
f 303//303 304//304 314//314 313//313
f 304//304 305//305 315//315 314//314
f 305//305 306//306 316//316 315//315
f 306//306 307//307 317//317 316//316
f 307//307 308//308 318//318 317//317
f 308//308 309//309 319//319 318//318
f 309//309 310//310 320//320 319//319
f 311//312 312//311 322//321 321//322
f 312//311 313//313 323//323 322//321
f 313//313 314//314 324//324 323//323
f 314//314 315//315 325//325 324//324
f 315//315 316//316 326//326 325//325
f 316//316 317//317 327//327 326//326
f 317//317 318//318 328//328 327//327
f 318//318 319//319 329//329 328//328
f 319//319 320//320 330//330 329//329
f 321//322 322//321 332//331 331//332
f 322//321 323//323 333//333 332//331
f 323//323 324//324 334//334 333//333
f 324//324 325//325 335//335 334//334
f 325//325 326//326 336//336 335//335
f 326//326 327//327 337//337 336//336
f 327//327 328//328 338//338 337//337
f 328//328 329//329 339//339 338//338
f 329//329 330//330 340//340 339//339
f 331//332 332//331 342//341 341//342
f 332//331 333//333 343//343 342//341
f 333//333 334//334 344//344 343//343
f 334//334 335//335 345//345 344//344
f 335//335 336//336 346//346 345//345
f 336//336 337//337 347//347 346//346
f 337//337 338//338 348//348 347//347
f 338//338 339//339 349//349 348//348
f 339//339 340//340 350//350 349//349
f 341//342 342//341 352//351 351//352
f 342//341 343//343 353//353 352//351
f 343//343 344//344 354//354 353//353
f 344//344 345//345 355//355 354//354
f 345//345 346//346 356//356 355//355
f 346//346 347//347 357//357 356//356
f 347//347 348//348 358//358 357//357
f 348//348 349//349 359//359 358//358
f 349//349 350//350 360//360 359//359
f 351//352 352//351 362//361 361//362
f 352//351 353//353 363//363 362//361
f 353//353 354//354 364//364 363//363
f 354//354 355//355 365//365 364//364
f 355//355 356//356 366//366 365//365
f 356//356 357//357 367//367 366//366
f 357//357 358//358 368//368 367//367
f 358//358 359//359 369//369 368//368
f 359//359 360//360 370//370 369//369
f 361//362 362//361 372//371 371//372
f 362//361 363//363 373//373 372//371
f 363//363 364//364 374//374 373//373
f 364//364 365//365 375//375 374//374
f 365//365 366//366 376//376 375//375
f 366//366 367//367 377//377 376//376
f 367//367 368//368 378//378 377//377
f 368//368 369//369 379//379 378//378
f 369//369 370//370 380//380 379//379
f 371//372 372//371 382//381 381//382
f 372//371 373//373 383//383 382//381
f 373//373 374//374 384//384 383//383
f 374//374 375//375 385//385 384//384
f 375//375 376//376 386//386 385//385
f 376//376 377//377 387//387 386//386
f 377//377 378//378 388//388 387//387
f 378//378 379//379 389//389 388//388
f 379//379 380//380 390//390 389//389
f 381//382 382//381 392//391 391//392
f 382//381 383//383 393//393 392//391
f 383//383 384//384 394//394 393//393
f 384//384 385//385 395//395 394//394
f 385//385 386//386 396//396 395//395
f 386//386 387//387 397//397 396//396
f 387//387 388//388 398//398 397//397
f 388//388 389//389 399//399 398//398
f 389//389 390//390 400//400 399//399
f 391//392 392//391 402//401 401//402
f 392//391 393//393 403//403 402//401
f 393//393 394//394 404//404 403//403
f 394//394 395//395 405//405 404//404
f 395//395 396//396 406//406 405//405
f 396//396 397//397 407//407 406//406
f 397//397 398//398 408//408 407//407
f 398//398 399//399 409//409 408//408
f 399//399 400//400 410//410 409//409
f 401//402 402//401 412//411 411//412
f 402//401 403//403 413//413 412//411
f 403//403 404//404 414//414 413//413
f 404//404 405//405 415//415 414//414
f 405//405 406//406 416//416 415//415
f 406//406 407//407 417//417 416//416
f 407//407 408//408 418//418 417//417
f 408//408 409//409 419//419 418//418
f 409//409 410//410 420//420 419//419
f 411//412 412//411 422//421 421//422
f 412//411 413//413 423//423 422//421
f 413//413 414//414 424//424 423//423
f 414//414 415//415 425//425 424//424
f 415//415 416//416 426//426 425//425
f 416//416 417//417 427//427 426//426
f 417//417 418//418 428//428 427//427
f 418//418 419//419 429//429 428//428
f 419//419 420//420 430//430 429//429
f 421//422 422//421 432//431 431//432
f 422//421 423//423 433//433 432//431
f 423//423 424//424 434//434 433//433
f 424//424 425//425 435//435 434//434
f 425//425 426//426 436//436 435//435
f 426//426 427//427 437//437 436//436
f 427//427 428//428 438//438 437//437
f 428//428 429//429 439//439 438//438
f 429//429 430//430 440//440 439//439
f 431//432 432//431 442//441 441//442
f 432//431 433//433 443//443 442//441
f 433//433 434//434 444//444 443//443
f 434//434 435//435 445//445 444//444
f 435//435 436//436 446//446 445//445
f 436//436 437//437 447//447 446//446
f 437//437 438//438 448//448 447//447
f 438//438 439//439 449//449 448//448
f 439//439 440//440 450//450 449//449
f 441//442 442//441 452//451 451//452
f 442//441 443//443 453//453 452//451
f 443//443 444//444 454//454 453//453
f 444//444 445//445 455//455 454//454
f 445//445 446//446 456//456 455//455
f 446//446 447//447 457//457 456//456
f 447//447 448//448 458//458 457//457
f 448//448 449//449 459//459 458//458
f 449//449 450//450 460//460 459//459
f 451//452 452//451 462//461 461//462
f 452//451 453//453 463//463 462//461
f 453//453 454//454 464//464 463//463
f 454//454 455//455 465//465 464//464
f 455//455 456//456 466//466 465//465
f 456//456 457//457 467//467 466//466
f 457//457 458//458 468//468 467//467
f 458//458 459//459 469//469 468//468
f 459//459 460//460 470//470 469//469
f 461//462 462//461 472//471 471//472
f 462//461 463//463 473//473 472//471
f 463//463 464//464 474//474 473//473
f 464//464 465//465 475//475 474//474
f 465//465 466//466 476//476 475//475
f 466//466 467//467 477//477 476//476
f 467//467 468//468 478//478 477//477
f 468//468 469//469 479//479 478//478
f 469//469 470//470 480//480 479//479
f 471//472 472//471 482//481 481//482
f 472//471 473//473 483//483 482//481
f 473//473 474//474 484//484 483//483
f 474//474 475//475 485//485 484//484
f 475//475 476//476 486//486 485//485
f 476//476 477//477 487//487 486//486
f 477//477 478//478 488//488 487//487
f 478//478 479//479 489//489 488//488
f 479//479 480//480 490//490 489//489
f 481//482 482//481 492//491 491//492
f 482//481 483//483 493//493 492//491
f 483//483 484//484 494//494 493//493
f 484//484 485//485 495//495 494//494
f 485//485 486//486 496//496 495//495
f 486//486 487//487 497//497 496//496
f 487//487 488//488 498//498 497//497
f 488//488 489//489 499//499 498//498
f 489//489 490//490 500//500 499//499
f 491//492 492//491 502//501 501//502
f 492//491 493//493 503//503 502//501
f 493//493 494//494 504//504 503//503
f 494//494 495//495 505//505 504//504
f 495//495 496//496 506//506 505//505
f 496//496 497//497 507//507 506//506
f 497//497 498//498 508//508 507//507
f 498//498 499//499 509//509 508//508
f 499//499 500//500 510//510 509//509
f 501//502 502//501 512//511 511//512
f 502//501 503//503 513//513 512//511
f 503//503 504//504 514//514 513//513
f 504//504 505//505 515//515 514//514
f 505//505 506//506 516//516 515//515
f 506//506 507//507 517//517 516//516
f 507//507 508//508 518//518 517//517
f 508//508 509//509 519//519 518//518
f 509//509 510//510 520//520 519//519
f 511//512 512//511 522//521 521//522
f 512//511 513//513 523//523 522//521
f 513//513 514//514 524//524 523//523
f 514//514 515//515 525//525 524//524
f 515//515 516//516 526//526 525//525
f 516//516 517//517 527//527 526//526
f 517//517 518//518 528//528 527//527
f 518//518 519//519 529//529 528//528
f 519//519 520//520 530//530 529//529
f 521//522 522//521 532//531 531//532
f 522//521 523//523 533//533 532//531
f 523//523 524//524 534//534 533//533
f 524//524 525//525 535//535 534//534
f 525//525 526//526 536//536 535//535
f 526//526 527//527 537//537 536//536
f 527//527 528//528 538//538 537//537
f 528//528 529//529 539//539 538//538
f 529//529 530//530 540//540 539//539
f 531//532 532//531 542//541 541//542
f 532//531 533//533 543//543 542//541
f 533//533 534//534 544//544 543//543
f 534//534 535//535 545//545 544//544
f 535//535 536//536 546//546 545//545
f 536//536 537//537 547//547 546//546
f 537//537 538//538 548//548 547//547
f 538//538 539//539 549//549 548//548
f 539//539 540//540 550//550 549//549
f 541//542 542//541 552//551 551//552
f 542//541 543//543 553//553 552//551
f 543//543 544//544 554//554 553//553
f 544//544 545//545 555//555 554//554
f 545//545 546//546 556//556 555//555
f 546//546 547//547 557//557 556//556
f 547//547 548//548 558//558 557//557
f 548//548 549//549 559//559 558//558
f 549//549 550//550 560//560 559//559
f 551//552 552//551 562//561 561//562
f 552//551 553//553 563//563 562//561
f 553//553 554//554 564//564 563//563
f 554//554 555//555 565//565 564//564
f 555//555 556//556 566//566 565//565
f 556//556 557//557 567//567 566//566
f 557//557 558//558 568//568 567//567
f 558//558 559//559 569//569 568//568
f 559//559 560//560 570//570 569//569
f 561//562 562//561 572//571 571//572
f 562//561 563//563 573//573 572//571
f 563//563 564//564 574//574 573//573
f 564//564 565//565 575//575 574//574
f 565//565 566//566 576//576 575//575
f 566//566 567//567 577//577 576//576
f 567//567 568//568 578//578 577//577
f 568//568 569//569 579//579 578//578
f 569//569 570//570 580//580 579//579
f 571//572 572//571 582//581 581//582
f 572//571 573//573 583//583 582//581
f 573//573 574//574 584//584 583//583
f 574//574 575//575 585//585 584//584
f 575//575 576//576 586//586 585//585
f 576//576 577//577 587//587 586//586
f 577//577 578//578 588//588 587//587
f 578//578 579//579 589//589 588//588
f 579//579 580//580 590//590 589//589
f 581//582 582//581 592//591 591//592
f 582//581 583//583 593//593 592//591
f 583//583 584//584 594//594 593//593
f 584//584 585//585 595//595 594//594
f 585//585 586//586 596//596 595//595
f 586//586 587//587 597//597 596//596
f 587//587 588//588 598//598 597//597
f 588//588 589//589 599//599 598//598
f 589//589 590//590 600//600 599//599
f 591//592 592//591 602//601 601//602
f 592//591 593//593 603//603 602//601
f 593//593 594//594 604//604 603//603
f 594//594 595//595 605//605 604//604
f 595//595 596//596 606//606 605//605
f 596//596 597//597 607//607 606//606
f 597//597 598//598 608//608 607//607
f 598//598 599//599 609//609 608//608
f 599//599 600//600 610//610 609//609
f 601//602 602//601 612//611 611//612
f 602//601 603//603 613//613 612//611
f 603//603 604//604 614//614 613//613
f 604//604 605//605 615//615 614//614
f 605//605 606//606 616//616 615//615
f 606//606 607//607 617//617 616//616
f 607//607 608//608 618//618 617//617
f 608//608 609//609 619//619 618//618
f 609//609 610//610 620//620 619//619
f 611//612 612//611 622//621 621//622
f 612//611 613//613 623//623 622//621
f 613//613 614//614 624//624 623//623
f 614//614 615//615 625//625 624//624
f 615//615 616//616 626//626 625//625
f 616//616 617//617 627//627 626//626
f 617//617 618//618 628//628 627//627
f 618//618 619//619 629//629 628//628
f 619//619 620//620 630//630 629//629
f 621//622 622//621 632//631 631//632
f 622//621 623//623 633//633 632//631
f 623//623 624//624 634//634 633//633
f 624//624 625//625 635//635 634//634
f 625//625 626//626 636//636 635//635
f 626//626 627//627 637//637 636//636
f 627//627 628//628 638//638 637//637
f 628//628 629//629 639//639 638//638
f 629//629 630//630 640//640 639//639
f 631//632 632//631 642//641 641//642
f 632//631 633//633 643//643 642//641
f 633//633 634//634 644//644 643//643
f 634//634 635//635 645//645 644//644
f 635//635 636//636 646//646 645//645
f 636//636 637//637 647//647 646//646
f 637//637 638//638 648//648 647//647
f 638//638 639//639 649//649 648//648
f 639//639 640//640 650//650 649//649
f 641//642 642//641 652//651 651//652
f 642//641 643//643 653//653 652//651
f 643//643 644//644 654//654 653//653
f 644//644 645//645 655//655 654//654
f 645//645 646//646 656//656 655//655
f 646//646 647//647 657//657 656//656
f 647//647 648//648 658//658 657//657
f 648//648 649//649 659//659 658//658
f 649//649 650//650 660//660 659//659
f 651//652 652//651 662//661 661//662
f 652//651 653//653 663//663 662//661
f 653//653 654//654 664//664 663//663
f 654//654 655//655 665//665 664//664
f 655//655 656//656 666//666 665//665
f 656//656 657//657 667//667 666//666
f 657//657 658//658 668//668 667//667
f 658//658 659//659 669//669 668//668
f 659//659 660//660 670//670 669//669
f 661//662 662//661 672//671 671//672
f 662//661 663//663 673//673 672//671
f 663//663 664//664 674//674 673//673
f 664//664 665//665 675//675 674//674
f 665//665 666//666 676//676 675//675
f 666//666 667//667 677//677 676//676
f 667//667 668//668 678//678 677//677
f 668//668 669//669 679//679 678//678
f 669//669 670//670 680//680 679//679
f 671//672 672//671 682//681 681//682
f 672//671 673//673 683//683 682//681
f 673//673 674//674 684//684 683//683
f 674//674 675//675 685//685 684//684
f 675//675 676//676 686//686 685//685
f 676//676 677//677 687//687 686//686
f 677//677 678//678 688//688 687//687
f 678//678 679//679 689//689 688//688
f 679//679 680//680 690//690 689//689
f 681//682 682//681 692//691 691//692
f 682//681 683//683 693//693 692//691
f 683//683 684//684 694//694 693//693
f 684//684 685//685 695//695 694//694
f 685//685 686//686 696//696 695//695
f 686//686 687//687 697//697 696//696
f 687//687 688//688 698//698 697//697
f 688//688 689//689 699//699 698//698
f 689//689 690//690 700//700 699//699
f 691//692 692//691 702//701 701//702
f 692//691 693//693 703//703 702//701
f 693//693 694//694 704//704 703//703
f 694//694 695//695 705//705 704//704
f 695//695 696//696 706//706 705//705
f 696//696 697//697 707//707 706//706
f 697//697 698//698 708//708 707//707
f 698//698 699//699 709//709 708//708
f 699//699 700//700 710//710 709//709
f 701//702 702//701 712//711 711//712
f 702//701 703//703 713//713 712//711
f 703//703 704//704 714//714 713//713
f 704//704 705//705 715//715 714//714
f 705//705 706//706 716//716 715//715
f 706//706 707//707 717//717 716//716
f 707//707 708//708 718//718 717//717
f 708//708 709//709 719//719 718//718
f 709//709 710//710 720//720 719//719
f 711//712 712//711 722//721 721//722
f 712//711 713//713 723//723 722//721
f 713//713 714//714 724//724 723//723
f 714//714 715//715 725//725 724//724
f 715//715 716//716 726//726 725//725
f 716//716 717//717 727//727 726//726
f 717//717 718//718 728//728 727//727
f 718//718 719//719 729//729 728//728
f 719//719 720//720 730//730 729//729
f 721//722 722//721 732//731 731//732
f 722//721 723//723 733//733 732//731
f 723//723 724//724 734//734 733//733
f 724//724 725//725 735//735 734//734
f 725//725 726//726 736//736 735//735
f 726//726 727//727 737//737 736//736
f 727//727 728//728 738//738 737//737
f 728//728 729//729 739//739 738//738
f 729//729 730//730 740//740 739//739
f 731//732 732//731 742//741 741//742
f 732//731 733//733 743//743 742//741
f 733//733 734//734 744//744 743//743
f 734//734 735//735 745//745 744//744
f 735//735 736//736 746//746 745//745
f 736//736 737//737 747//747 746//746
f 737//737 738//738 748//748 747//747
f 738//738 739//739 749//749 748//748
f 739//739 740//740 750//750 749//749
f 741//742 742//741 752//751 751//752
f 742//741 743//743 753//753 752//751
f 743//743 744//744 754//754 753//753
f 744//744 745//745 755//755 754//754
f 745//745 746//746 756//756 755//755
f 746//746 747//747 757//757 756//756
f 747//747 748//748 758//758 757//757
f 748//748 749//749 759//759 758//758
f 749//749 750//750 760//760 759//759
f 751//752 752//751 762//761 761//762
f 752//751 753//753 763//763 762//761
f 753//753 754//754 764//764 763//763
f 754//754 755//755 765//765 764//764
f 755//755 756//756 766//766 765//765
f 756//756 757//757 767//767 766//766
f 757//757 758//758 768//768 767//767
f 758//758 759//759 769//769 768//768
f 759//759 760//760 770//770 769//769
f 761//762 762//761 772//771 771//772
f 762//761 763//763 773//773 772//771
f 763//763 764//764 774//774 773//773
f 764//764 765//765 775//775 774//774
f 765//765 766//766 776//776 775//775
f 766//766 767//767 777//777 776//776
f 767//767 768//768 778//778 777//777
f 768//768 769//769 779//779 778//778
f 769//769 770//770 780//780 779//779
f 771//772 772//771 782//781 781//782
f 772//771 773//773 783//783 782//781
f 773//773 774//774 784//784 783//783
f 774//774 775//775 785//785 784//784
f 775//775 776//776 786//786 785//785
f 776//776 777//777 787//787 786//786
f 777//777 778//778 788//788 787//787
f 778//778 779//779 789//789 788//788
f 779//779 780//780 790//790 789//789
f 781//782 782//781 792//791 791//792
f 782//781 783//783 793//793 792//791
f 783//783 784//784 794//794 793//793
f 784//784 785//785 795//795 794//794
f 785//785 786//786 796//796 795//795
f 786//786 787//787 797//797 796//796
f 787//787 788//788 798//798 797//797
f 788//788 789//789 799//799 798//798
f 789//789 790//790 800//800 799//799
f 791//792 792//791 802//801 801//802
f 792//791 793//793 803//803 802//801
f 793//793 794//794 804//804 803//803
f 794//794 795//795 805//805 804//804
f 795//795 796//796 806//806 805//805
f 796//796 797//797 807//807 806//806
f 797//797 798//798 808//808 807//807
f 798//798 799//799 809//809 808//808
f 799//799 800//800 810//810 809//809
f 801//802 802//801 812//811 811//812
f 802//801 803//803 813//813 812//811
f 803//803 804//804 814//814 813//813
f 804//804 805//805 815//815 814//814
f 805//805 806//806 816//816 815//815
f 806//806 807//807 817//817 816//816
f 807//807 808//808 818//818 817//817
f 808//808 809//809 819//819 818//818
f 809//809 810//810 820//820 819//819
f 811//812 812//811 822//821 821//822
f 812//811 813//813 823//823 822//821
f 813//813 814//814 824//824 823//823
f 814//814 815//815 825//825 824//824
f 815//815 816//816 826//826 825//825
f 816//816 817//817 827//827 826//826
f 817//817 818//818 828//828 827//827
f 818//818 819//819 829//829 828//828
f 819//819 820//820 830//830 829//829
f 821//822 822//821 832//831 831//832
f 822//821 823//823 833//833 832//831
f 823//823 824//824 834//834 833//833
f 824//824 825//825 835//835 834//834
f 825//825 826//826 836//836 835//835
f 826//826 827//827 837//837 836//836
f 827//827 828//828 838//838 837//837
f 828//828 829//829 839//839 838//838
f 829//829 830//830 840//840 839//839
f 831//832 832//831 842//841 841//842
f 832//831 833//833 843//843 842//841
f 833//833 834//834 844//844 843//843
f 834//834 835//835 845//845 844//844
f 835//835 836//836 846//846 845//845
f 836//836 837//837 847//847 846//846
f 837//837 838//838 848//848 847//847
f 838//838 839//839 849//849 848//848
f 839//839 840//840 850//850 849//849
f 841//842 842//841 852//851 851//852
f 842//841 843//843 853//853 852//851
f 843//843 844//844 854//854 853//853
f 844//844 845//845 855//855 854//854
f 845//845 846//846 856//856 855//855
f 846//846 847//847 857//857 856//856
f 847//847 848//848 858//858 857//857
f 848//848 849//849 859//859 858//858
f 849//849 850//850 860//860 859//859
f 851//852 852//851 862//861 861//862
f 852//851 853//853 863//863 862//861
f 853//853 854//854 864//864 863//863
f 854//854 855//855 865//865 864//864
f 855//855 856//856 866//866 865//865
f 856//856 857//857 867//867 866//866
f 857//857 858//858 868//868 867//867
f 858//858 859//859 869//869 868//868
f 859//859 860//860 870//870 869//869
f 861//862 862//861 872//871 871//872
f 862//861 863//863 873//873 872//871
f 863//863 864//864 874//874 873//873
f 864//864 865//865 875//875 874//874
f 865//865 866//866 876//876 875//875
f 866//866 867//867 877//877 876//876
f 867//867 868//868 878//878 877//877
f 868//868 869//869 879//879 878//878
f 869//869 870//870 880//880 879//879
f 871//872 872//871 882//881 881//882
f 872//871 873//873 883//883 882//881
f 873//873 874//874 884//884 883//883
f 874//874 875//875 885//885 884//884
f 875//875 876//876 886//886 885//885
f 876//876 877//877 887//887 886//886
f 877//877 878//878 888//888 887//887
f 878//878 879//879 889//889 888//888
f 879//879 880//880 890//890 889//889
f 881//882 882//881 892//891 891//892
f 882//881 883//883 893//893 892//891
f 883//883 884//884 894//894 893//893
f 884//884 885//885 895//895 894//894
f 885//885 886//886 896//896 895//895
f 886//886 887//887 897//897 896//896
f 887//887 888//888 898//898 897//897
f 888//888 889//889 899//899 898//898
f 889//889 890//890 900//900 899//899
f 891//892 892//891 902//901 901//902
f 892//891 893//893 903//903 902//901
f 893//893 894//894 904//904 903//903
f 894//894 895//895 905//905 904//904
f 895//895 896//896 906//906 905//905
f 896//896 897//897 907//907 906//906
f 897//897 898//898 908//908 907//907
f 898//898 899//899 909//909 908//908
f 899//899 900//900 910//910 909//909
f 901//902 902//901 912//911 911//912
f 902//901 903//903 913//913 912//911
f 903//903 904//904 914//914 913//913
f 904//904 905//905 915//915 914//914
f 905//905 906//906 916//916 915//915
f 906//906 907//907 917//917 916//916
f 907//907 908//908 918//918 917//917
f 908//908 909//909 919//919 918//918
f 909//909 910//910 920//920 919//919
f 911//912 912//911 922//921 921//922
f 912//911 913//913 923//923 922//921
f 913//913 914//914 924//924 923//923
f 914//914 915//915 925//925 924//924
f 915//915 916//916 926//926 925//925
f 916//916 917//917 927//927 926//926
f 917//917 918//918 928//928 927//927
f 918//918 919//919 929//929 928//928
f 919//919 920//920 930//930 929//929
f 921//922 922//921 932//931 931//932
f 922//921 923//923 933//933 932//931
f 923//923 924//924 934//934 933//933
f 924//924 925//925 935//935 934//934
f 925//925 926//926 936//936 935//935
f 926//926 927//927 937//937 936//936
f 927//927 928//928 938//938 937//937
f 928//928 929//929 939//939 938//938
f 929//929 930//930 940//940 939//939
f 931//932 932//931 942//941 941//942
f 932//931 933//933 943//943 942//941
f 933//933 934//934 944//944 943//943
f 934//934 935//935 945//945 944//944
f 935//935 936//936 946//946 945//945
f 936//936 937//937 947//947 946//946
f 937//937 938//938 948//948 947//947
f 938//938 939//939 949//949 948//948
f 939//939 940//940 950//950 949//949
f 941//942 942//941 952//951 951//952
f 942//941 943//943 953//953 952//951
f 943//943 944//944 954//954 953//953
f 944//944 945//945 955//955 954//954
f 945//945 946//946 956//956 955//955
f 946//946 947//947 957//957 956//956
f 947//947 948//948 958//958 957//957
f 948//948 949//949 959//959 958//958
f 949//949 950//950 960//960 959//959
f 951//952 952//951 962//961 961//962
f 952//951 953//953 963//963 962//961
f 953//953 954//954 964//964 963//963
f 954//954 955//955 965//965 964//964
f 955//955 956//956 966//966 965//965
f 956//956 957//957 967//967 966//966
f 957//957 958//958 968//968 967//967
f 958//958 959//959 969//969 968//968
f 959//959 960//960 970//970 969//969
f 961//962 962//961 972//971 971//972
f 962//961 963//963 973//973 972//971
f 963//963 964//964 974//974 973//973
f 964//964 965//965 975//975 974//974
f 965//965 966//966 976//976 975//975
f 966//966 967//967 977//977 976//976
f 967//967 968//968 978//978 977//977
f 968//968 969//969 979//979 978//978
f 969//969 970//970 980//980 979//979
f 971//972 972//971 982//981 981//982
f 972//971 973//973 983//983 982//981
f 973//973 974//974 984//984 983//983
f 974//974 975//975 985//985 984//984
f 975//975 976//976 986//986 985//985
f 976//976 977//977 987//987 986//986
f 977//977 978//978 988//988 987//987
f 978//978 979//979 989//989 988//988
f 979//979 980//980 990//990 989//989
f 981//982 982//981 992//991 991//992
f 982//981 983//983 993//993 992//991
f 983//983 984//984 994//994 993//993
f 984//984 985//985 995//995 994//994
f 985//985 986//986 996//996 995//995
f 986//986 987//987 997//997 996//996
f 987//987 988//988 998//998 997//997
f 988//988 989//989 999//999 998//998
f 989//989 990//990 1000//1000 999//999
