# Blender v2.79 (sub 0) OBJ File: 'untitled.blend'
# www.blender.org
g Wolf
v -0.146109 0.000000 -0.477089
v -0.100709 0.400000 -0.054737
v -0.100000 0.000000 0.200000
v -0.080835 0.629330 0.365934
v -0.096800 0.719358 0.360259
v -0.094767 0.614320 0.340494
v -0.021942 0.486272 0.508229
v -0.066139 0.450405 -0.488938
v -0.073055 0.388183 -0.447488
v 0.000000 0.400000 0.297339
v 0.146109 0.000000 -0.477089
v 0.000000 0.413680 -0.409846
v 0.000000 0.548297 -0.400000
v 0.100709 0.400000 -0.054737
v 0.100000 0.000000 0.200000
v 0.000000 0.600000 0.150000
v 0.000000 0.450000 0.200000
v 0.080835 0.629330 0.365934
v 0.096800 0.719358 0.360259
v 0.094767 0.614320 0.340494
v 0.000000 0.549598 0.559324
v 0.021942 0.486272 0.508229
v 0.066139 0.450405 -0.488938
v 0.000000 0.651260 0.350991
v 0.000000 0.181007 -0.599620
v 0.000000 0.456682 -0.538103
v 0.073055 0.388183 -0.447488
vn -0.8726 0.4862 -0.0457
vn 0.3263 -0.9436 0.0562
vn 0.9019 -0.3579 0.2420
vn 0.9702 -0.2156 -0.1107
vn -0.9473 0.1709 0.2710
vn 0.9233 -0.2052 -0.3247
vn -0.8913 0.0671 -0.4484
vn -0.8666 -0.4331 0.2479
vn -0.1606 0.8870 0.4329
vn -0.8408 -0.1158 0.5288
vn -0.6274 0.6884 -0.3639
vn -0.6689 -0.4194 0.6138
vn 0.9284 0.1850 0.3224
vn -0.9217 0.0064 0.3879
vn -0.9608 0.2667 -0.0757
vn -0.1759 -0.6222 0.7628
vn -0.2949 0.9259 -0.2361
vn -0.9382 -0.3435 0.0429
vn 0.8039 -0.5165 0.2949
vn -0.9442 -0.1033 -0.3127
vn -0.5980 0.1746 -0.7822
vn 0.4634 -0.0196 -0.8860
vn -0.8941 0.3129 0.3205
vn -0.4400 0.7483 -0.4964
vn 0.8726 0.4862 -0.0457
vn -0.3263 -0.9436 0.0562
vn -0.9019 -0.3579 0.2420
vn -0.9702 -0.2156 -0.1107
vn 0.9473 0.1709 0.2710
vn -0.9233 -0.2052 -0.3247
vn 0.8913 0.0671 -0.4484
vn 0.8666 -0.4331 0.2479
vn 0.1606 0.8870 0.4329
vn 0.8408 -0.1158 0.5288
vn 0.6274 0.6884 -0.3639
vn 0.6689 -0.4194 0.6138
vn -0.9284 0.1850 0.3224
vn 0.9217 0.0064 0.3879
vn 0.9608 0.2667 -0.0757
vn 0.1759 -0.6222 0.7628
vn 0.2949 0.9259 -0.2361
vn 0.9382 -0.3435 0.0429
vn -0.8039 -0.5165 0.2949
vn 0.9442 -0.1033 -0.3127
vn 0.5980 0.1746 -0.7822
vn -0.4634 -0.0196 -0.8860
vn 0.8941 0.3129 0.3205
vn 0.4400 0.7483 -0.4964
s off
f 13//1 2//1 16//1
f 2//2 12//2 17//2
f 2//3 1//3 12//3
f 10//4 3//4 17//4
f 10//5 2//5 3//5
f 17//6 3//6 2//6
f 16//7 6//7 5//7
f 10//8 6//8 2//8
f 21//9 24//9 4//9
f 5//10 6//10 4//10
f 16//11 2//11 6//11
f 10//12 4//12 6//12
f 16//13 5//13 4//13
f 21//14 4//14 7//14
f 1//15 2//15 13//15 9//15
f 9//16 25//16 12//16
f 16//17 4//17 24//17
f 4//18 10//18 7//18
f 10//19 21//19 7//19
f 25//20 9//20 8//20
f 26//21 25//21 8//21
f 12//22 1//22 9//22
f 9//23 13//23 8//23
f 8//24 13//24 26//24
f 13//25 16//25 14//25
f 14//26 17//26 12//26
f 14//27 12//27 11//27
f 10//28 17//28 15//28
f 10//29 15//29 14//29
f 17//30 14//30 15//30
f 16//31 19//31 20//31
f 10//32 14//32 20//32
f 21//33 18//33 24//33
f 19//34 18//34 20//34
f 16//35 20//35 14//35
f 10//36 20//36 18//36
f 16//37 18//37 19//37
f 21//38 22//38 18//38
f 11//39 27//39 13//39 14//39
f 27//40 12//40 25//40
f 16//41 24//41 18//41
f 18//42 22//42 10//42
f 10//43 22//43 21//43
f 25//44 23//44 27//44
f 26//45 23//45 25//45
f 12//46 27//46 11//46
f 27//47 23//47 13//47
f 23//48 26//48 13//48
